<?xml version="1.0" encoding="UTF-8" standalone="no"?>
<!-- Created with Inkscape (http://www.inkscape.org/) -->

<svg
   width="210mm"
   height="297mm"
   viewBox="0 0 210 297"
   version="1.1"
   id="svg1"
   inkscape:version="1.3.2 (091e20ef0f, 2023-11-25)"
   sodipodi:docname="lamp.svg"
   xmlns:inkscape="http://www.inkscape.org/namespaces/inkscape"
   xmlns:sodipodi="http://sodipodi.sourceforge.net/DTD/sodipodi-0.dtd"
   xmlns="http://www.w3.org/2000/svg"
   xmlns:svg="http://www.w3.org/2000/svg">
  <sodipodi:namedview
     id="namedview1"
     pagecolor="#ffffff"
     bordercolor="#666666"
     borderopacity="1.0"
     inkscape:showpageshadow="2"
     inkscape:pageopacity="0.0"
     inkscape:pagecheckerboard="0"
     inkscape:deskcolor="#d1d1d1"
     inkscape:document-units="mm"
     inkscape:zoom="0.50394254"
     inkscape:cx="270.86421"
     inkscape:cy="821.52223"
     inkscape:window-width="1920"
     inkscape:window-height="997"
     inkscape:window-x="0"
     inkscape:window-y="27"
     inkscape:window-maximized="1"
     inkscape:current-layer="layer1" />
  <defs
     id="defs1" />
  <g
     inkscape:label="Layer 1"
     inkscape:groupmode="layer"
     id="layer1">
    <path
       id="path1-7"
       style="fill:#d40000;stroke-width:5.82356"
       d="m 104.2417,81.464795 c -1.30489,0 -4.615874,2.370197 -7.902878,5.261177 -7.078638,6.225865 -8.005088,10.552413 -3.79305,17.716228 2.923795,4.97284 2.934097,4.95461 -4.472595,8.22948 -3.636594,1.60789 -5.926303,3.93974 -6.924125,7.05124 -1.154801,3.60108 -2.829007,5.01996 -7.429521,6.29574 l -0.162781,1.11208 c -4.314117,2.0528 -11.280731,6.73684 -17.85214,10.26863 l -15.630054,8.40052 -25.305432,-0.0713 c -29.148418,-0.082 -34.023839,-1.12969 -59.07443,-12.69328 -19.430916,-8.96948 -40.221474,-14.34446 -57.177384,-15.10295 -5.65201,-0.25283 -10.87843,0.007 -15.48588,0.81803 -6.48978,1.8274 -13.10508,2.52422 -19.81119,3.23237 l 21.64932,6.50606 c 45.799915,13.7633 65.812813,24.24669 118.8113523,62.23858 14.8400687,10.63804 32.6830707,21.89988 43.1658407,27.24433 l 12.456087,6.63784 c -0.644742,0.95192 -3.986999,5.03566 -7.426937,9.07489 -8.455808,9.9288 -10.220372,14.76017 -8.018632,21.95164 0.964849,3.15148 3.266501,6.51613 5.114417,8.58242 h 55.150642 0.23823 55.15063 c 1.84793,-2.06629 4.14957,-5.43094 5.11442,-8.58242 2.20175,-7.19147 0.43718,-12.02284 -8.01863,-21.95164 -3.43994,-4.03923 -6.7822,-8.12297 -7.42694,-9.07489 0,0 1.92827,-4.60571 3.34605,-6.63784 5.38834,-7.7232 19.28668,-16.93896 19.28668,-20.6437 0,-2.19518 0.92905,-2.09689 4.9258,0.52193 4.47774,2.93393 11.35441,3.29875 17.12505,0.90847 4.41895,-1.83042 4.74286,-2.46243 4.74286,-9.25835 0,-8.68828 -0.44699,-8.43248 23.07301,-13.20694 18.85936,-3.82831 35.8176,-11.28821 42.2088,-18.56735 4.70357,-5.35745 6.98326,-16.26794 4.95887,-23.7355 -0.6511,-2.40174 -3.7176,-6.41794 -6.81458,-8.92452 -5.62939,-4.55639 -5.63676,-4.5574 -27.71045,-5.09581 -31.71818,-0.77364 -35.31011,0.7076 -54.73309,22.5733 -2.90513,3.27046 -6.21443,5.47539 -8.1871,5.45289 -1.82104,-0.02 -10.00925,-4.39652 -18.1963,-9.7255 -6.32861,-4.11929 -13.47561,-9.17253 -18.29294,-11.22929 l -0.14935,-1.02268 c -4.60051,-1.27578 -6.27471,-2.69466 -7.42952,-6.29574 -0.99782,-3.1115 -3.28753,-5.44335 -6.92413,-7.05124 -7.40669,-3.27487 -7.39689,-3.25664 -4.47311,-8.22948 4.21205,-7.163815 3.2856,-11.490363 -3.79305,-17.716228 -3.28699,-2.89098 -6.59696,-5.261177 -7.90184,-5.261177 z m 124.39706,59.125075 c 10.18211,0 17.81388,0.62778 18.3596,1.5105 2.37009,3.83495 -17.53374,13.87209 -46.15894,23.27662 -6.54965,2.15184 -12.54496,4.48834 -13.3227,5.19244 -6.24731,5.65546 -1.22097,-5.24012 8.11268,-17.58549 8.12376,-10.74516 12.51625,-12.39407 33.00936,-12.39407 z"
       sodipodi:nodetypes="sccsscccccsscccscccsccccsscassssccscsscsccsccssscscssc" />
  </g>
</svg>
