<?xml version="1.0" encoding="UTF-8" standalone="no"?>
<!-- Created with Inkscape (http://www.inkscape.org/) -->

<svg
   width="210mm"
   height="297mm"
   viewBox="0 0 210 297"
   version="1.1"
   id="svg3617"
   inkscape:version="1.2.2 (b0a8486541, 2022-12-01)"
   sodipodi:docname="dragonfly2.svg"
   xmlns:inkscape="http://www.inkscape.org/namespaces/inkscape"
   xmlns:sodipodi="http://sodipodi.sourceforge.net/DTD/sodipodi-0.dtd"
   xmlns="http://www.w3.org/2000/svg"
   xmlns:svg="http://www.w3.org/2000/svg">
  <sodipodi:namedview
     id="namedview3619"
     pagecolor="#ffffff"
     bordercolor="#666666"
     borderopacity="1.0"
     inkscape:showpageshadow="2"
     inkscape:pageopacity="0.0"
     inkscape:pagecheckerboard="0"
     inkscape:deskcolor="#d1d1d1"
     inkscape:document-units="mm"
     showgrid="false"
     inkscape:zoom="0.51213162"
     inkscape:cx="403.21666"
     inkscape:cy="1283.8496"
     inkscape:window-width="1920"
     inkscape:window-height="992"
     inkscape:window-x="0"
     inkscape:window-y="32"
     inkscape:window-maximized="1"
     inkscape:current-layer="layer1" />
  <defs
     id="defs3614" />
  <g
     inkscape:label="Layer 1"
     inkscape:groupmode="layer"
     id="layer1">
    <path
       id="path350-5-9"
       style="fill:#0000ff;stroke-width:0.187075"
       d="m -96.180926,-207.8007 c -5.689254,0.1341 -10.612594,3.1167 -12.915494,7.82433 -3.55996,7.27763 0.12083,16.38946 8.22121,20.35173 0.7098,0.34621 1.441216,0.64568 2.188493,0.89607 l 45.530038,36.05 20.588407,92.57109 12.41888,9.832991 c -5.468118,-1.847646 -10.956246,-3.630812 -16.510103,-5.202783 -11.738326,-3.322433 -23.656904,-5.948957 -35.602995,-8.458915 -11.266515,-18.020166 -22.635273,-36.126312 -33.24758,-51.984943 l -3.03134,-1.18442 -57.52776,-22.46943 c -2.51691,-2.43209 -5.83292,-4.06263 -9.42268,-4.63331 -8.90541,-1.41517 -17.15547,3.92345 -18.4273,11.92434 -1.27161,8.00142 4.91746,15.63514 13.82345,17.05012 0.78021,0.12322 1.56741,0.19542 2.35541,0.21601 l 54.09386,21.127906 12.11554,21.348051 c -56.40512,-14.144378 -106.74704,-38.295447 -164.37705,-62.595657 -23.30574,-9.52867 -45.29603,-23.45519 -69.97454,-28.44736 -12.47231,-2.52305 -25.73773,-4.92179 -38.60385,-4.66742 -7.71962,0.15262 -15.29574,1.26047 -22.47098,3.86953 -12.94344,4.70674 -25.16563,14.62987 -31.3185,26.95185 -5.04327,10.09985 -6.20642,23.22569 -2.23552,33.793278 8.83867,23.522227 33.32971,38.053519 53.27995,53.331114 34.99118,26.795749 73.91607,49.0426282 114.66535,65.832157 14.48437,5.967802 29.99756,9.308743 45.4117,12.103654 26.43881,4.793925 53.35796,7.346221 80.22198,7.909078 30.19971,0.63276 60.315021,-3.454734 90.476131,-5.106148 17.227208,-0.943247 34.541248,-0.946332 51.7684165,-1.874304 C -126.66186,64.605156 -247.16492,39.675017 -365.28233,54.480968 c -24.05898,3.165967 -51.7904,2.141776 -70.70318,17.345711 -12.42579,9.98909 -20.00567,27.013607 -21.11137,42.918311 -1.5522,43.21376 32.63289,34.53207 65.49316,45.37656 69.37593,15.06188 141.98643,30.22334 207.45607,27.47584 69.46551,-4.64439 139.676128,-23.88845 206.251493,-47.15423 3.96374,-1.38515 8.547229,-2.35078 12.923759,-3.60184 l -1.040763,4.76973 c -24.5401755,21.66894 -52.980564,45.78637 -75.800541,66.93183 l -0.694014,3.17965 -13.162504,60.34102 c -2.007068,2.86733 -3.09713,6.39813 -3.097486,10.03298 -9.8e-5,9.01735 6.567352,16.32748 14.668872,16.32769 8.10152,-2.1e-4 14.66897,-7.31034 14.668872,-16.32769 -6.66e-4,-0.78985 -0.05282,-1.57861 -0.156063,-2.36006 l 12.377022,-56.73969 66.402151,-58.93283 v 322.57617 h 10.610204 c 2.339288,56.89958 13.746589,98.34715 27.07483,98.37436 13.328248,-0.0272 24.735548,-41.47477 27.074838,-98.37436 h 10.61072 V 164.06395 l 66.40266,58.93283 12.37702,56.73969 c -0.10341,0.78144 -0.15574,1.57019 -0.15658,2.36006 -1e-4,9.01735 6.56736,16.32748 14.66888,16.32769 8.10172,1.1e-4 14.66949,-7.31011 14.66939,-16.32769 -3.6e-4,-3.63485 -1.09042,-7.16565 -3.09749,-10.03298 l -13.1625,-60.34102 -0.69402,-3.17965 c -22.81996,-21.14543 -51.2609,-45.26291 -75.80106,-66.93183 l -1.04024,-4.76973 c 4.37637,1.25099 8.95964,2.21674 12.92324,3.60184 66.5754,23.2658 136.78589,42.50983 206.25149,47.15423 65.4697,2.7475 138.08059,-12.41394 207.45659,-27.47584 32.8603,-10.8445 67.04536,-2.16276 65.49316,-45.37656 C 629.74858,98.840268 622.16819,81.815779 609.74239,71.826679 590.82959,56.622729 563.09821,57.646938 539.03921,54.480968 420.92168,39.675002 300.4188,64.605182 178.44469,38.557909 c 17.22717,0.927973 34.54126,0.931058 51.76841,1.874304 30.16108,1.651412 60.27645,5.738908 90.47613,5.106148 26.86412,-0.562856 53.7832,-3.115158 80.22198,-7.909078 15.41412,-2.794908 30.92786,-6.135858 45.41222,-12.103654 40.7491,-16.7895118 79.67369,-39.036435 114.66483,-65.832157 19.95022,-15.27758 44.44129,-29.808908 53.27995,-53.331114 3.9709,-10.567578 2.80826,-23.693438 -2.235,-33.793278 -6.153,-12.32197 -18.37508,-22.24511 -31.3185,-26.95185 -7.17536,-2.60905 -14.75189,-3.71691 -22.4715,-3.86953 -12.86611,-0.25437 -26.13155,2.14437 -38.60385,4.66742 -24.67848,4.99216 -46.66882,18.9187 -69.97454,28.44736 -58.65243,24.73133 -109.75208,49.31496 -167.38203,63.344448 l 15.12053,-26.643335 54.09437,-21.127903 c 0.788,-0.0206 1.5752,-0.0928 2.35541,-0.21601 8.90554,-1.41521 15.09422,-9.04852 13.82293,-17.04961 -1.27155,-8.0011 -9.5217,-13.34001 -18.4273,-11.92485 -3.58983,0.57082 -6.90585,2.20155 -9.42268,4.63383 l -57.52775,22.46891 -3.03134,1.18442 c -11.64137,17.396398 -24.19503,37.494748 -36.51974,57.216146 -10.84851,2.309032 -21.6638,4.75515 -32.33033,7.774202 -5.55414,1.572061 -11.04265,3.355537 -16.51113,5.2033 l 12.41939,-9.833508 20.58841,-92.57109 45.53004,-36.05 c 0.74745,-0.25037 1.47904,-0.54984 2.18901,-0.89607 8.10021,-3.96244 11.78074,-13.07423 8.22069,-20.35173 -2.3029,-4.70763 -7.22624,-7.69023 -12.91549,-7.82433 -2.79533,-0.0659 -5.62235,0.5623 -8.19692,1.8216 -3.26495,1.59762 -5.95756,4.12837 -7.65121,7.19129 l -48.4203,38.33771 -2.55126,2.02055 c -8.9675,29.79023 -18.13466,65.936108 -26.81646,97.501542 l -50.21605,39.760363 c 2.71037,-4.419467 4.12952,-9.243339 4.15737,-14.131437 -9.3e-4,-2.896684 -0.49062,-5.780981 -1.45676,-8.580355 21.22888,-2.044777 37.37914,-18.958341 37.38273,-39.149548 -4.1e-4,-20.800795 -17.1062,-38.010035 -39.04775,-39.283905 -1.19753,-3.75996 -3.06619,-7.32719 -5.53558,-10.56731 6.10758,-10.75488 15.9185,-19.10656 27.73216,-23.60735 0.16516,0.0102 0.33059,0.0161 0.4961,0.0176 4.9528,7e-5 8.96788,-3.7825 8.96792,-8.44858 -4e-5,-4.66608 -4.01512,-8.44865 -8.96792,-8.44858 -2.076,0.001 -4.08723,0.68105 -5.69061,1.9234 l -0.15142,-0.29456 c -14.49424,5.34259 -26.77964,15.12101 -34.97977,27.84171 -6.59509,-3.76422 -14.26176,-5.80254 -22.113378,-5.87922 -7.850366,0.0811 -15.514439,2.12318 -22.10615,5.89008 -8.200264,-12.72602 -20.488774,-22.50855 -34.987524,-27.85257 l -0.151412,0.29456 c -1.603381,-1.24235 -3.614611,-1.92214 -5.690609,-1.9234 -4.952801,-7e-5 -8.967891,3.7825 -8.967928,8.44858 3.7e-5,4.66608 4.015127,8.44865 8.967928,8.44858 0.165505,-0.002 0.330933,-0.007 0.496094,-0.0176 11.821512,4.50373 21.637395,12.86336 27.744041,23.62802 -2.469568,3.24496 -4.336876,6.81734 -5.531443,10.5823 -21.933365,1.26535 -39.0429238,18.45571 -39.0637655,39.248245 0.0031,20.199835 16.1663325,37.118041 37.4054685,39.152649 -0.973291,2.79761 -1.47045,5.680859 -1.478979,8.577254 0.07007,4.973641 1.580086,9.872501 4.419885,14.339177 L -2.5447805,-60.928008 C -11.226541,-92.493472 -20.393777,-128.63929 -29.361232,-158.42955 l -2.551266,-2.02055 -48.419783,-38.33771 c -1.693794,-3.063 -4.38659,-5.59376 -7.65173,-7.19129 -2.574564,-1.2593 -5.401582,-1.88755 -8.196915,-1.8216 z"
       sodipodi:nodetypes="cccccccscccccccccccsscsssssssccscccccccccccccccccccccccccccccccccccsccssscssccsscccccccccccscccccsscccccccccccccccccccccccccccccccccccccc" />
    <g
       id="g3371"
       style="fill:#000000"
       transform="translate(-2257.718,-505.42578)" />
  </g>
</svg>
