<?xml version="1.0" encoding="UTF-8" standalone="no"?>
<!-- Created with Inkscape (http://www.inkscape.org/) -->

<svg
   width="210mm"
   height="297mm"
   viewBox="0 0 210 297"
   version="1.1"
   id="svg1"
   inkscape:version="1.3.2 (091e20ef0f, 2023-11-25)"
   sodipodi:docname="jayjay.svg"
   xmlns:inkscape="http://www.inkscape.org/namespaces/inkscape"
   xmlns:sodipodi="http://sodipodi.sourceforge.net/DTD/sodipodi-0.dtd"
   xmlns="http://www.w3.org/2000/svg"
   xmlns:svg="http://www.w3.org/2000/svg">
  <sodipodi:namedview
     id="namedview1"
     pagecolor="#ffffff"
     bordercolor="#666666"
     borderopacity="1.0"
     inkscape:showpageshadow="2"
     inkscape:pageopacity="0.0"
     inkscape:pagecheckerboard="0"
     inkscape:deskcolor="#d1d1d1"
     inkscape:document-units="mm"
     inkscape:zoom="1.0078851"
     inkscape:cx="983.7431"
     inkscape:cy="267.88768"
     inkscape:window-width="1920"
     inkscape:window-height="997"
     inkscape:window-x="0"
     inkscape:window-y="27"
     inkscape:window-maximized="1"
     inkscape:current-layer="layer1" />
  <defs
     id="defs1" />
  <g
     inkscape:label="Layer 1"
     inkscape:groupmode="layer"
     id="layer1">
    <path
       id="path1-1"
       style="fill:#333333;stroke:none;stroke-opacity:1"
       d="m 117.29464,25.880074 c -1.32147,2.071657 -0.46637,5.660195 -2.58589,6.903455 -3.26484,1.915073 -8.1432,-3.909136 -11.22567,-1.712557 -2.07786,1.480677 0.443,5.742864 -1.37873,7.529256 -3.09483,3.034818 -9.272469,4.56195 -12.834357,2.091862 -0.976986,-0.677526 -1.706258,-1.592865 -2.246374,-2.652551 -0.303306,2.212107 -0.43768,4.710782 -0.483692,7.922513 -0.09651,6.73645 -0.432645,9.446015 -1.62574,13.096875 -0.475,1.453479 -1.068831,2.824172 -1.785938,4.205428 3.074361,4.834618 5.832236,10.000906 6.309176,15.776298 -0.11233,3.222811 -4.284449,4.139319 -4.510319,7.33547 -0.707167,3.731038 1.601946,7.958765 -0.816488,11.336776 -2.704671,2.822481 -6.67319,0.444823 -9.866581,0.122473 -2.218094,-0.38542 -4.284536,0.6714 -6.03529,1.907377 -2.47611,1.454571 -5.13186,-0.312229 -6.237863,-2.607593 -1.467537,-2.476851 -2.29884,-5.222474 -2.863908,-8.035685 -6.532642,6.121051 -11.040865,10.511383 -14.560868,14.251329 7.329613,9.0588 4.810083,33.99673 2.835486,35.21025 -5.21617,2.23608 -13.18903,-4.51289 -19.612756,-8.17469 -1.100267,3.90321 -1.672839,7.87155 -1.682585,12.01632 -0.02071,-0.0177 -7.72e-4,0.10886 0,0.0816 l 5.969145,18.65467 c 0.01005,0.004 0.01993,0.009 0.02997,0.0129 4.397553,1.67362 12.804158,2.10323 19.138367,2.10323 0.654835,0.0584 10.537079,0.0684 21.960416,0 18.69836,-0.11188 20.862149,0.39803 21.695834,0 1.81362,-0.86587 2.310813,-3.76458 1.313098,-6.7262 -1.203965,-3.57394 -3.871751,-6.47717 -7.122046,-7.75043 -0.752645,-0.29485 -1.877347,-0.45766 -3.112472,-0.45166 l -1.934248,0.0103 1.761132,-1.49448 c 3.476475,-2.94931 6.269749,-4.2129 7.702889,-11.75122 l 1.353923,4.24056 0.681612,2.50218 c 2.999255,11.00925 7.401197,18.87682 11.659237,20.83903 0.96236,0.44352 1.88268,0.48851 10.14667,0.49351 10.50214,0.007 10.57098,-0.006 11.49439,-2.09186 0.47741,-1.07842 0.50417,-1.3935 0.24598,-2.90266 -0.40229,-2.35144 -1.68831,-4.81298 -3.46181,-6.62544 -2.0813,-2.12708 -3.75068,-2.91364 -7.03678,-3.31607 -1.6187,-0.19824 -3.0856,-0.54397 -3.75326,-0.88471 -2.94077,-1.50076 -4.58441,-5.40413 -4.59041,-10.89804 -0.004,-4.19736 0.81517,-9.37735 3.66747,-23.17791 1.72004,-8.32223 1.9921,-10.78807 1.80351,-16.366444 -0.17894,-5.293485 -0.55575,-7.34629 -2.77347,-15.11639 -1.99238,-6.980425 -2.14083,-7.613612 -2.34146,-9.986987 -0.30874,-3.652445 0.83201,-6.175534 3.37499,-7.464144 2.22306,-1.126535 4.33937,-1.430706 10.02522,-1.439706 0.64258,-0.0011 1.08438,-0.02281 1.6366,-0.03204 -0.0454,-0.717845 0.0307,-1.43121 0.27078,-2.124935 0.72066,-2.08211 3.69337,-1.078114 5.11132,-2.673739 1.00753,-1.13375 0.72079,-3.525647 1.89342,-4.318082 1.05669,-0.71407 2.32465,-0.971761 3.66076,-0.938961 1.57496,0.03863 3.23936,0.486772 4.76973,1.062467 0.0566,-0.08938 0.17297,-0.219375 0.22066,-0.302307 0.56488,-0.982255 1.1681,-1.785937 1.33997,-1.785937 0.17188,0 0.66193,-0.364688 1.08934,-0.810803 0.61993,-0.64707 0.77722,-1.047313 0.77722,-1.979208 0,-0.964615 -0.14935,-1.317753 -0.85783,-2.026233 -0.71331,-0.713305 -1.0682,-0.8621 -2.10427,-0.8816 -1.22665,-0.02306 -1.25544,-0.04378 -1.83813,-1.312064 -4.16827,-9.716749 -2.48748,-21.520889 -15.4187,-25.867155 0.12522,-1.744501 -5.03421,3.515742 -7.24038,6.974362 z M 27.769881,130.38274 C 0,0 0,0 27.769881,130.38274 Z"
       sodipodi:nodetypes="ssssscsscccccccccccscccccsssccccccscsscsccsscscccsssccssssssccscc" />
    <ellipse
       style="fill:#000000;stroke-width:0.648223;stroke-linejoin:bevel"
       id="path2"
       cx="132.36079"
       cy="38.902401"
       rx="1.3555315"
       ry="3.6453736" />
    <path
       style="fill:#333333;stroke:none;stroke-opacity:1"
       d="m 307.98296,30.867873 c 12.93127,4.346291 11.25033,16.150471 15.41865,25.867265 0.58269,1.26829 0.61157,1.2889 1.83822,1.31196 1.03607,0.0195 1.3909,0.1681 2.10421,0.88141 0.70848,0.70848 0.85798,1.06153 0.85798,2.02615 0,0.9319 -0.15717,1.33221 -0.7771,1.97928 -0.42741,0.44612 -0.91773,0.81113 -1.08961,0.81113 -0.17187,0 -0.77468,0.80367 -1.33956,1.78593 -1.26552,2.20059 -5.77042,6.78403 -7.66457,7.7982 -2.28739,1.22472 -4.19673,1.51965 -9.89895,1.52905 -5.6859,0.009 -7.80207,0.3133 -10.02518,1.43984 -2.54298,1.28862 -3.68376,3.81149 -3.37502,7.46395 0.20063,2.37339 0.34911,3.0067 2.34149,9.98716 2.21777,7.770142 2.59441,9.823012 2.77335,15.116522 0.18859,5.57842 -0.0831,8.04409 -1.80314,16.36637 -2.85235,13.80067 -3.67206,18.98061 -3.66783,23.17802 0.006,5.49391 1.64967,9.39717 4.59049,10.89798 0.66766,0.34074 2.13469,0.68656 3.75344,0.8848 3.2861,0.40243 4.95513,1.189 7.03648,3.31608 1.7735,1.81246 3.05979,4.2741 3.46208,6.62554 0.25819,1.50916 0.23151,1.82411 -0.2459,2.90253 -0.92341,2.08592 -0.99264,2.09851 -11.49483,2.0918 -8.26404,-0.005 -9.18411,-0.05 -10.14647,-0.49352 -4.25809,-1.96226 -8.65993,-9.82999 -11.6592,-20.83929 l -0.68161,-2.50196 -1.35378,-4.24064 c -1.43315,7.53837 -4.22631,8.80196 -7.7028,11.75127 l -1.76155,1.49443 1.93419,-0.0101 c 1.23513,-0.006 2.36016,0.15678 3.11281,0.45163 3.25031,1.27331 5.91794,4.17628 7.12191,7.75022 0.99772,2.96167 0.50054,5.86035 -1.31309,6.72622 -0.83369,0.39803 -2.99738,-0.11188 -21.69583,0 -11.42339,0.0684 -21.30558,0.0584 -21.96042,0 h -3e-5 c -6.33424,0 -14.74097,-0.42941 -19.13855,-2.10303 -14.51249,-5.52315 -28.83009,-20.33591 -31.4962,-33.43359 -2.17414,-10.68085 1.72461,-20.64139 10.81495,-27.63006 3.02118,-2.32269 3.6897,-2.72219 11.08248,-6.6227 9.13276,-4.81856 11.60815,-6.352942 15.28388,-9.473782 3.08767,-2.62154 5.82787,-6.89561 6.73341,-10.50253 0.67886,-2.70403 0.41,-7.7372 -0.55177,-10.32926 -2.33373,-6.28965 -7.21046,-10.05417 -13.02466,-10.05417 -5.17201,0 -6.15741,2.6965 -8.06138,6.76519 -2.02939,4.33672 -1.49377,8.36706 1.56394,11.76796 1.80869,2.0117 5.17379,4.15436 7.87618,5.015 3.06445,0.97594 4.36969,2.17286 4.36173,3.99975 -0.005,1.21866 -0.49036,2.08296 -1.58746,2.82867 -1.20538,0.81931 -4.91384,0.69647 -7.82191,-0.44028 -3.59275,-1.40438 -6.59822,-3.35101 -9.25046,-5.9915 -3.78993,-3.77313 -5.40105,-7.4445 -5.40945,-12.32694 -0.0123,-7.12521 3.73215,-15.20694 10.43243,-18.24499 3.13476,-1.42137 7.99135,-1.91586 11.92095,-1.76945 2.94725,0.10981 3.74883,0.76913 5.60004,1.4384 2.97495,1.07555 5.39155,3.31245 7.82194,5.61214 4.49733,4.25548 6.90622,9.66475 7.2566,16.29501 0.37451,7.0869 -1.85604,12.78119 -7.18482,18.3419 -4.38535,4.576222 -9.29316,7.910772 -20.90209,14.201662 -5.50079,2.9809 -7.49333,4.31993 -10.01752,6.73203 -8.19068,7.82694 -8.71491,18.18972 -2.23587,28.06087 2.11878,3.22808 7.39515,8.20013 9.12285,8.63376 0.97684,0.24517 1.66639,1.38279 1.67345,-1.6223 0.0222,-9.44978 2.79213,-18.00445 8.70425,-26.88255 5.73194,-8.60752 10.42105,-13.59187 29.00135,-30.827332 14.69511,-13.63149 18.84606,-18.66909 21.12216,-25.63387 1.1931,-3.65088 1.5295,-6.3604 1.62601,-13.09688 0.12578,-8.7798 0.8823,-12.29111 4.07587,-18.917697 4.28583,-8.89303 11.71783,-16.86556 21.2078,-22.750222 2.63694,-1.635147 8.41294,-4.500943 8.63137,-4.282508 0.0706,0.07059 -0.0526,0.478192 -0.27368,0.905783 -1.02984,1.991477 -2.12404,8.468067 -1.58655,9.390787 0.1905,0.32703 0.61412,0.169501 2.47872,-0.92168 1.78996,-1.047503 7.91414,-4.163974 7.76596,-3.905706 0,0 -2.77226,4.59092 -3.53343,7.132709 -0.60619,2.024276 -0.77135,6.292179 -0.77135,6.292179 z"
       id="path1-1-4"
       sodipodi:nodetypes="csssssssscssssccsssssccsccsccssscsssssssssssssssssssssssssssssssssssscsscac" />
    <path
       id="path1-2-4"
       style="fill:#ff6600;stroke:none;stroke-opacity:1"
       d="m 227.9581,115.26631 c -4.23085,4.49391 -6.8458,7.90072 -9.7193,12.21579 -3.31899,4.98406 -5.61358,9.8705 -7.0218,14.86628 6.42374,3.66182 14.39658,10.41078 19.61276,8.1747 1.97791,-1.21555 4.5033,-26.23615 -2.87166,-35.25677 z" />
    <path
       id="path1-5-3"
       style="fill:#ff6600;stroke:none;stroke-opacity:1"
       d="m 266.57641,75.226368 c -2.71909,5.23738 -7.70792,10.64196 -19.33628,21.42867 -1.8818,1.74559 -3.07265,2.8957 -4.68499,4.406452 0.56507,2.81322 1.39637,5.55883 2.86391,8.03569 1.10601,2.29537 3.76175,4.06216 6.23786,2.60759 1.75076,-1.23598 3.81719,-2.2928 6.03529,-1.90738 3.1934,0.32235 7.1619,2.70001 9.86658,-0.12247 2.41844,-3.37802 0.10932,-7.60573 0.81649,-11.336782 0.22587,-3.19616 4.39798,-4.11265 4.51031,-7.33547 -0.47694,-5.77541 -3.2348,-10.94167 -6.30917,-15.7763 z" />
    <path
       id="path1-0"
       style="fill:#ff6600;stroke:none;stroke-opacity:1"
       d="m 320.00519,64.770678 c -1.33611,-0.0328 -2.60407,0.22489 -3.66076,0.93896 -1.17263,0.79244 -0.8859,3.18433 -1.89343,4.31809 -1.41795,1.59563 -4.39065,0.59161 -5.11131,2.67373 -0.24011,0.69373 -0.31622,1.40709 -0.27079,2.12494 4.34814,-0.0727 6.23241,-0.41036 8.26203,-1.49707 1.82277,-0.97595 5.9992,-5.21383 7.44399,-7.49618 -1.53042,-0.5757 -3.19477,-1.02384 -4.76973,-1.06247 z" />
    <path
       id="path1-65-7"
       style="fill:#ff6600;stroke:none;stroke-opacity:1"
       d="m 303.90333,11.973904 c -0.21843,-0.218434 -5.99458,2.64728 -8.63152,4.282425 -9.48996,5.884657 -16.92166,13.857012 -21.20748,22.750033 -2.02533,4.202505 -3.06683,7.160166 -3.59255,10.995196 0.54012,1.05969 1.26938,1.97502 2.24637,2.65255 3.5619,2.4701 9.73951,0.94297 12.83436,-2.09186 1.82173,-1.7864 -0.69913,-6.048573 1.37873,-7.529258 3.08247,-2.196587 7.96083,3.627638 11.22567,1.712557 2.11952,-1.243264 1.26442,-4.83179 2.58589,-6.903455 1.90351,-2.984151 4.46072,-5.588001 7.29154,-7.743197 0.0506,-1.011718 0.21131,-3.824966 0.71985,-5.523177 0.76117,-2.541786 3.53364,-7.132898 3.53364,-7.132898 0.14818,-0.258268 -5.97598,2.858203 -7.76594,3.905705 -1.86459,1.09118 -2.28841,1.248937 -2.47891,0.921908 -0.53749,-0.92272 0.55662,-7.399167 1.58646,-9.390642 0.22108,-0.42759 0.34449,-0.835297 0.27389,-0.905887 z" />
    <path
       style="fill:#ff6600;stroke:none;stroke-opacity:1"
       d="m 215.53324,173.19559 c -14.51249,-5.52315 -28.83009,-20.33591 -31.4962,-33.43359 -2.17415,-10.68085 1.72461,-20.64139 10.81495,-27.63006 3.02118,-2.3227 3.6897,-2.72219 11.08248,-6.62271 9.13276,-4.81856 11.60815,-6.352942 15.28388,-9.473782 3.08767,-2.62154 5.82787,-6.89561 6.73341,-10.50253 0.67886,-2.70403 0.41,-7.7372 -0.55177,-10.32926 -2.33373,-6.28965 -7.21046,-10.05417 -13.02466,-10.05417 -5.17201,0 -6.15741,2.6965 -8.06138,6.76519 -2.02939,4.33672 -1.49377,8.36706 1.56394,11.76796 1.80869,2.0117 5.17379,4.15436 7.87618,5.015 3.06445,0.97594 4.36969,2.17286 4.36173,3.99975 -0.005,1.21866 -0.49037,2.08296 -1.58746,2.82867 -1.20538,0.81931 -4.91384,0.69647 -7.82191,-0.44028 -3.59275,-1.40438 -6.59822,-3.35101 -9.25046,-5.9915 -3.78993,-3.77313 -5.40105,-7.4445 -5.40945,-12.32694 -0.0123,-7.12521 3.73215,-15.20694 10.43242,-18.24499 3.13477,-1.42137 7.99136,-1.91586 11.92096,-1.76945 2.94725,0.10981 3.74883,0.76913 5.60004,1.4384 2.97495,1.07555 5.39155,3.31245 7.82194,5.61214 4.49733,4.25548 6.90622,9.66475 7.2566,16.29501 0.37451,7.0869 -1.85604,12.78119 -7.18483,18.3419 -4.38534,4.576222 -9.29315,7.910772 -20.90208,14.201672 -5.50079,2.9809 -7.49333,4.31993 -10.01752,6.73203 -8.19068,7.82694 -8.71491,18.18972 -2.23588,28.06087 2.11879,3.22808 7.39516,8.20013 9.12286,8.63376 0.97684,0.24517 1.66638,1.38279 1.67345,-1.6223 z"
       id="path1-9-8"
       sodipodi:nodetypes="cssssssssssssssssssssssssscc" />
    <ellipse
       style="fill:#000000;stroke-width:0.648223;stroke-linejoin:bevel"
       id="path2-6"
       cx="315.8089"
       cy="50.864399"
       rx="1.3555315"
       ry="3.6453736" />
  </g>
</svg>
