<?xml version="1.0" encoding="UTF-8" standalone="no"?>
<!-- Created with Inkscape (http://www.inkscape.org/) -->

<svg
   width="210mm"
   height="297mm"
   viewBox="0 0 210 297"
   version="1.1"
   id="svg5"
   inkscape:version="1.2.2 (b0a8486541, 2022-12-01)"
   sodipodi:docname="2304-work.svg"
   xmlns:inkscape="http://www.inkscape.org/namespaces/inkscape"
   xmlns:sodipodi="http://sodipodi.sourceforge.net/DTD/sodipodi-0.dtd"
   xmlns="http://www.w3.org/2000/svg"
   xmlns:svg="http://www.w3.org/2000/svg">
  <sodipodi:namedview
     id="namedview7"
     pagecolor="#ffffff"
     bordercolor="#666666"
     borderopacity="1.0"
     inkscape:showpageshadow="2"
     inkscape:pageopacity="0.0"
     inkscape:pagecheckerboard="0"
     inkscape:deskcolor="#d1d1d1"
     inkscape:document-units="mm"
     showgrid="false"
     inkscape:zoom="0.36480429"
     inkscape:cx="572.90992"
     inkscape:cy="634.58683"
     inkscape:window-width="1920"
     inkscape:window-height="997"
     inkscape:window-x="0"
     inkscape:window-y="27"
     inkscape:window-maximized="1"
     inkscape:current-layer="layer1" />
  <defs
     id="defs2">
    <rect
       x="396.79405"
       y="587.21686"
       width="236.49517"
       height="249.92099"
       id="rect2895" />
    <rect
       x="434.98253"
       y="695.00229"
       width="379.05505"
       height="393.73823"
       id="rect2863" />
    <rect
       x="49.736333"
       y="350.29049"
       width="173.13929"
       height="218.20263"
       id="rect2716" />
    <rect
       x="86.397108"
       y="340.88089"
       width="1448.7332"
       height="569.10937"
       id="rect236" />
    <rect
       x="49.736332"
       y="350.2905"
       width="678.3082"
       height="261.39998"
       id="rect2716-2" />
    <rect
       x="49.736332"
       y="350.2905"
       width="779.34722"
       height="238.26846"
       id="rect2716-3" />
    <rect
       x="49.736332"
       y="350.2905"
       width="779.34723"
       height="238.26846"
       id="rect2716-3-9" />
  </defs>
  <g
     inkscape:label="Layer 1"
     inkscape:groupmode="layer"
     id="layer1">
    <path
       id="text2893"
       style="font-style:normal;font-weight:normal;font-size:192px;line-height:1.25;font-family:sans-serif;white-space:pre;shape-inside:url(#rect2895);fill:#000000;fill-opacity:1;stroke:none;stroke-width:0.264583"
       d="M 124.91963,0.31005868 V 37.293848 h 8.68681 v -6.79648 h 4.56406 v -7.83829 h -4.56406 V 0.31005868 Z M 120.91988,4.9232187 106.3957,22.187798 v 8.30957 h 14.52418 v -7.83829 h -5.84254 l 5.84254,-6.87089 z" />
    <path
       id="text2861"
       style="font-style:normal;font-weight:normal;font-size:192px;line-height:1.25;font-family:sans-serif;white-space:pre;shape-inside:url(#rect2863);fill:#000000;fill-opacity:1;stroke:none;stroke-width:0.264583"
       d="M 88.574347,0.06641868 V 7.3284987 c 0.6321,0.4172997 1.15638,1.0522797 1.57148,1.9078997 0.82682,1.6536396 1.24023,4.8947896 1.24023,9.7234396 0,3.29075 -0.1819,5.71334 -0.5457,7.26777 -0.34727,1.55443 -0.90124,2.69544 -1.66191,3.42305 -0.19188,0.18334 -0.39353,0.34193 -0.6041,0.478 v 7.4073 c 4.39349,-0.34294 7.56376,-1.8462 9.50898,-4.51187 2.232423,-3.05924 3.348633,-7.88789 3.348633,-14.48593 0,-2.94349 -0.339,-5.77123 -1.01699,-8.48321 -0.34727,-1.4221296 -0.810293,-2.6623693 -1.389073,-3.7206993 -0.56224,-1.07487 -1.33945,-2.09186 -2.33164,-3.05098 -0.99218,-0.97565 -2.27376,-1.76113 -3.84472,-2.35644002 -1.17846,-0.45898 -2.60354,-0.74574 -4.27519,-0.86041 z m -4.000274,0.0439 c -3.974997,0.35858 -7.023375,1.70304002 -9.137425,4.04110002 -2.480466,2.76158 -3.720703,7.5985093 -3.720703,14.5107393 0,2.81119 0.239779,5.38262 0.719336,7.71426 0.496091,2.3151 1.182357,4.14238 2.058789,5.48183 1.207159,1.88516 2.75332,3.31557 4.638476,4.29121 1.460789,0.75603 3.275751,1.21785 5.441527,1.38803 v -7.38197 c -0.642252,-0.42019 -1.183569,-1.07477 -1.621605,-1.96836 -0.810286,-1.70325 -1.215429,-4.86999 -1.215429,-9.5002 0,-4.58059 0.37207,-7.71425 1.116211,-9.4009696 0.423428,-0.96918 0.997561,-1.66176 1.720823,-2.0794597 z" />
    <g
       aria-label="2304"
       transform="matrix(0.26458333,0,0,0.26458333,-12.852625,200.63094)"
       id="text234"
       style="font-size:192px;line-height:1.25;white-space:pre;shape-inside:url(#rect236)">
      <path
         d="M 206.02148,513.82571 H 91.458984 q 1.96875,-16.96875 11.906246,-31.875 10.03125,-15 37.5,-35.34375 16.78125,-12.46875 21.46875,-18.9375 4.6875,-6.46875 4.6875,-12.28125 0,-6.28125 -4.6875,-10.6875 -4.59375,-4.5 -11.625,-4.5 -7.3125,0 -12,4.59375 -4.59375,4.59375 -6.1875,16.21875 l -38.249996,-3.09375 q 2.25,-16.125 8.249996,-25.125 6,-9.09375 16.875,-13.875 10.96875,-4.875 30.28125,-4.875 20.15625,0 31.3125,4.59375 11.25,4.59375 17.625,14.15625 6.46875,9.46875 6.46875,21.28125 0,12.5625 -7.40625,24 -7.3125,11.4375 -26.71875,25.125 -11.53125,7.96875 -15.46875,11.15625 -3.84375,3.1875 -9.09375,8.34375 h 59.625 z"
         style="font-family:'Arial Black';-inkscape-font-specification:'Arial Black, '"
         id="path398" />
      <path
         d="m 259.36523,416.13821 -36.09375,-6.46875 q 4.5,-17.25 17.25,-26.4375 12.84375,-9.1875 36.28125,-9.1875 26.90625,0 38.90625,10.03125 12,10.03125 12,25.21875 0,8.90625 -4.875,16.125 -4.875,7.21875 -14.71875,12.65625 7.96875,1.96875 12.1875,4.59375 6.84375,4.21875 10.59375,11.15625 3.84375,6.84375 3.84375,16.40625 0,12 -6.28125,23.0625 -6.28125,10.96875 -18.09375,16.96875 -11.8125,5.90625 -31.03125,5.90625 -18.75,0 -29.625,-4.40625 -10.78125,-4.40625 -17.8125,-12.84375 -6.9375,-8.53125 -10.6875,-21.375 l 38.15625,-5.0625 q 2.25,11.53125 6.9375,16.03125 4.78125,4.40625 12.09375,4.40625 7.6875,0 12.75,-5.625 5.15625,-5.625 5.15625,-15 0,-9.5625 -4.96875,-14.8125 -4.875,-5.25 -13.3125,-5.25 -4.5,0 -12.375,2.25 l 1.96875,-27.28125 q 3.1875,0.46875 4.96875,0.46875 7.5,0 12.46875,-4.78125 5.0625,-4.78125 5.0625,-11.34375 0,-6.28125 -3.75,-10.03125 -3.75,-3.75 -10.3125,-3.75 -6.75,0 -10.96875,4.125 -4.21875,4.03125 -5.71875,14.25 z"
         style="font-family:'Arial Black';-inkscape-font-specification:'Arial Black, '"
         id="path400" />
      <path
         d="m 350.39648,444.54446 q 0,-39.1875 14.0625,-54.84375 14.15625,-15.65625 43.03125,-15.65625 13.875,0 22.78125,3.46875 8.90625,3.375 14.53125,8.90625 5.625,5.4375 8.8125,11.53125 3.28125,6 5.25,14.0625 3.84375,15.375 3.84375,32.0625 0,37.40625 -12.65625,54.75 -12.65625,17.34375 -43.59375,17.34375 -17.34375,0 -28.03125,-5.53125 -10.6875,-5.53125 -17.53125,-16.21875 -4.96875,-7.59375 -7.78125,-20.71875 -2.71875,-13.21875 -2.71875,-29.15625 z m 37.875,0.0937 q 0,26.25 4.59375,35.90625 4.6875,9.5625 13.5,9.5625 5.8125,0 10.03125,-4.03125 4.3125,-4.125 6.28125,-12.9375 2.0625,-8.8125 2.0625,-27.46875 0,-27.375 -4.6875,-36.75 -4.59375,-9.46875 -13.875,-9.46875 -9.46875,0 -13.6875,9.65625 -4.21875,9.5625 -4.21875,35.53125 z"
         style="font-family:'Arial Black';-inkscape-font-specification:'Arial Black, '"
         id="path402" />
      <path
         d="m 544.08398,488.13821 h -69.5625 v -31.40625 l 69.5625,-82.6875 h 33.28125 v 84.46875 h 17.25 v 29.625 h -17.25 v 25.6875 h -33.28125 z m 0,-29.625 v -43.21875 l -36.75,43.21875 z"
         style="font-family:'Arial Black';-inkscape-font-specification:'Arial Black, '"
         id="path404" />
    </g>
    <path
       id="rect459"
       style="fill:#ff0000;stroke-width:1.29185;stroke-linejoin:bevel"
       d="m 162.89399,319.73381 h 4 v 78.2809 h -4 z" />
    <rect
       style="fill:#ff0000;stroke:none;stroke-width:1.29185;stroke-linejoin:bevel"
       id="rect459-1-7"
       width="4"
       height="78.280899"
       x="313.1593"
       y="286.3233" />
    <g
       aria-label="2"
       transform="matrix(0.26458333,0,0,0.26458333,-14.498856,-101.14564)"
       id="text2714"
       style="font-size:192px;line-height:1.25;white-space:pre;shape-inside:url(#rect2716)">
      <path
         d="M 169.36133,523.23586 H 54.798828 q 1.96875,-16.96875 11.90625,-31.875 10.03125,-15 37.500002,-35.34375 16.78125,-12.46875 21.46875,-18.9375 4.6875,-6.46875 4.6875,-12.28125 0,-6.28125 -4.6875,-10.6875 -4.59375,-4.5 -11.625,-4.5 -7.3125,0 -12,4.59375 -4.593752,4.59375 -6.187502,16.21875 l -38.25,-3.09375 q 2.25,-16.125 8.25,-25.125 6,-9.09375 16.875,-13.875 10.96875,-4.875 30.281252,-4.875 20.15625,0 31.3125,4.59375 11.25,4.59375 17.625,14.15625 6.46875,9.46875 6.46875,21.28125 0,12.5625 -7.40625,24 -7.3125,11.4375 -26.71875,25.125 -11.53125,7.96875 -15.46875,11.15625 -3.84375,3.1875 -9.09375,8.34375 h 59.625 z"
         style="font-weight:bold;font-family:'Arial Black';-inkscape-font-specification:'Arial Black,  Bold'"
         id="path2825" />
    </g>
    <g
       aria-label="3"
       transform="matrix(0.26458333,0,0,0.26458333,20.90023,-101.4557)"
       id="text2714-9"
       style="font-size:192px;line-height:1.25;white-space:pre;shape-inside:url(#rect2716-2)">
      <path
         d="m 94.642578,425.54836 -36.09375,-6.46875 q 4.5,-17.25 17.25,-26.4375 12.84375,-9.1875 36.281252,-9.1875 26.90625,0 38.90625,10.03125 12,10.03125 12,25.21875 0,8.90625 -4.875,16.125 -4.875,7.21875 -14.71875,12.65625 7.96875,1.96875 12.1875,4.59375 6.84375,4.21875 10.59375,11.15625 3.84375,6.84375 3.84375,16.40625 0,12 -6.28125,23.0625 -6.28125,10.96875 -18.09375,16.96875 -11.8125,5.90625 -31.03125,5.90625 -18.750002,0 -29.625002,-4.40625 -10.78125,-4.40625 -17.8125,-12.84375 -6.9375,-8.53125 -10.6875,-21.375 l 38.15625,-5.0625 q 2.25,11.53125 6.937502,16.03125 4.78125,4.40625 12.09375,4.40625 7.6875,0 12.75,-5.625 5.15625,-5.625 5.15625,-15 0,-9.5625 -4.96875,-14.8125 -4.875,-5.25 -13.3125,-5.25 -4.5,0 -12.375,2.25 l 1.96875,-27.28125 q 3.1875,0.46875 4.96875,0.46875 7.5,0 12.46875,-4.78125 5.0625,-4.78125 5.0625,-11.34375 0,-6.28125 -3.75,-10.03125 -3.75,-3.75 -10.3125,-3.75 -6.75,0 -10.96875,4.125 -4.218752,4.03125 -5.718752,14.25 z"
         style="font-weight:bold;font-family:'Arial Black';-inkscape-font-specification:'Arial Black,  Bold'"
         id="path2828" />
    </g>
    <g
       aria-label="0"
       transform="matrix(0.26458333,0,0,0.26458333,134.79299,238.61661)"
       id="text2714-1"
       style="font-size:192px;line-height:1.25;white-space:pre;shape-inside:url(#rect2716-3);display:inline">
      <path
         d="m 57.611328,453.95461 q 0,-39.1875 14.0625,-54.84375 14.15625,-15.65625 43.031252,-15.65625 13.875,0 22.78125,3.46875 8.90625,3.375 14.53125,8.90625 5.625,5.4375 8.8125,11.53125 3.28125,6 5.25,14.0625 3.84375,15.375 3.84375,32.0625 0,37.40625 -12.65625,54.75 -12.65625,17.34375 -43.59375,17.34375 -17.343752,0 -28.031252,-5.53125 -10.6875,-5.53125 -17.53125,-16.21875 -4.96875,-7.59375 -7.78125,-20.71875 -2.71875,-13.21875 -2.71875,-29.15625 z m 37.875,0.0937 q 0,26.25 4.593752,35.90625 4.6875,9.5625 13.5,9.5625 5.8125,0 10.03125,-4.03125 4.3125,-4.125 6.28125,-12.9375 2.0625,-8.8125 2.0625,-27.46875 0,-27.375 -4.6875,-36.75 -4.59375,-9.46875 -13.875,-9.46875 -9.46875,0 -13.687502,9.65625 -4.21875,9.5625 -4.21875,35.53125 z"
         style="font-weight:bold;font-family:'Arial Black';-inkscape-font-specification:'Arial Black,  Bold'"
         id="path2831" />
    </g>
  </g>
</svg>
