<?xml version="1.0" encoding="UTF-8" standalone="no"?>
<!-- Created with Inkscape (http://www.inkscape.org/) -->

<svg
   width="210mm"
   height="297mm"
   viewBox="0 0 210 297"
   version="1.1"
   id="svg2824"
   inkscape:version="1.2.2 (b0a8486541, 2022-12-01)"
   sodipodi:docname="dotd-svg-3.svg"
   xmlns:inkscape="http://www.inkscape.org/namespaces/inkscape"
   xmlns:sodipodi="http://sodipodi.sourceforge.net/DTD/sodipodi-0.dtd"
   xmlns="http://www.w3.org/2000/svg"
   xmlns:svg="http://www.w3.org/2000/svg">
  <sodipodi:namedview
     id="namedview2826"
     pagecolor="#ffffff"
     bordercolor="#666666"
     borderopacity="1.0"
     inkscape:showpageshadow="2"
     inkscape:pageopacity="0.0"
     inkscape:pagecheckerboard="0"
     inkscape:deskcolor="#d1d1d1"
     inkscape:document-units="mm"
     showgrid="false"
     inkscape:zoom="0.7296086"
     inkscape:cx="531.79198"
     inkscape:cy="529.73608"
     inkscape:window-width="1920"
     inkscape:window-height="997"
     inkscape:window-x="0"
     inkscape:window-y="27"
     inkscape:window-maximized="1"
     inkscape:current-layer="layer1" />
  <defs
     id="defs2821" />
  <g
     inkscape:label="Layer 1"
     inkscape:groupmode="layer"
     id="layer1">
    <path
       id="path1664"
       style="fill:#000000;stroke-width:0.546313"
       d="M 91.479171 3.4695557 L 91.479171 3.4824748 C 84.514536 3.7373524 77.632009 4.6913924 71.156897 6.3737712 C 33.534998 16.148774 6.1013844 47.86413 3.7532593 84.298214 C 3.0230272 95.628432 4.236656 105.86233 7.5401082 116.23528 L 9.1245076 121.21069 L 6.9789022 125.79542 C 0.78973721 139.01649 0.3129948 146.8395 5.0596395 157.2736 C 7.9781829 163.68921 12.189212 169.26787 19.825663 176.8352 L 27.012305 183.95673 L 27.399361 201.41975 C 27.842303 221.39289 28.266912 224.40205 31.593937 231.14972 C 33.401055 234.81457 34.841026 236.7387 38.569222 240.46904 C 41.153328 243.05465 44.743223 246.13643 46.545996 247.3172 C 56.968699 254.14369 69.632319 258.43507 84.304932 260.11384 C 86.213111 260.33217 88.731561 260.43283 91.479171 260.45232 L 91.479171 260.45749 C 91.526231 260.45724 91.570311 260.45542 91.617147 260.45542 C 91.664447 260.45571 91.708207 260.45749 91.75564 260.45749 L 91.75564 260.45232 C 94.503239 260.43372 97.02217 260.33213 98.930396 260.11384 C 113.60292 258.43507 126.26596 254.14369 136.68881 247.3172 C 138.49164 246.13643 142.08195 243.05465 144.66611 240.46904 C 148.39401 236.7387 149.83387 234.81457 151.64087 231.14972 C 154.96771 224.40205 155.39251 221.39289 155.83545 201.41975 L 156.22302 183.95673 L 163.40915 176.8352 C 171.04567 169.26787 175.25708 163.68921 178.17569 157.2736 C 182.92236 146.8395 182.44514 139.01649 176.25591 125.79542 L 174.1103 121.21069 L 175.6947 116.23528 C 178.99823 105.86233 180.2118 95.628432 179.48155 84.298214 C 177.13337 47.864131 149.69985 16.148774 112.07791 6.3737712 C 105.60285 4.6914138 98.720275 3.737352 91.75564 3.4824748 L 91.75564 3.4695557 C 91.70941 3.4710957 91.6634 3.4737468 91.617147 3.4757568 C 91.571277 3.4740968 91.525177 3.4715658 91.479171 3.4695557 z M 57.406832 26.084196 L 60.09504 26.33431 C 65.945234 26.878015 72.086692 29.874568 78.487716 35.308956 C 81.390033 37.772978 86.400592 43.173833 88.2835 45.868001 C 88.74656 46.530596 89.326481 47.075678 89.57231 47.079297 C 90.38547 47.090797 89.925356 45.773178 89.061747 44.714067 C 88.585678 44.130206 87.933453 42.419245 87.578634 40.824382 C 86.895854 37.755464 85.879668 36.069633 84.712659 36.069633 C 84.309969 36.069633 84.376762 35.813535 84.376762 35.500159 C 84.376762 34.698859 87.205314 34.79137 88.331042 35.676892 C 89.432011 36.5429 89.934704 37.694354 90.523674 40.699841 C 91.07684 46.762188 91.984119 44.138598 92.711654 40.699841 C 93.300613 37.694339 93.803316 36.5429 94.904285 35.676892 C 96.030024 34.79137 98.858049 34.698859 98.858049 35.500159 C 98.858049 35.813535 98.925359 36.069633 98.522668 36.069633 C 97.35568 36.069633 96.339463 37.755464 95.656694 40.824382 C 95.301854 42.419249 94.649143 44.130221 94.173063 44.714067 C 93.309454 45.773182 92.849868 47.090783 93.663017 47.079297 C 93.908857 47.074997 94.488767 46.530581 94.951827 45.868001 C 96.834735 43.173833 101.84526 37.772978 104.74761 35.308956 C 111.1487 29.874568 117.28962 26.878015 123.13977 26.33431 L 125.8285 26.084196 L 125.82229 28.133167 C 125.81829 29.673819 125.53676 30.700366 124.68903 32.271415 C 121.97914 37.293523 121.16702 39.383511 120.63191 42.711605 C 119.46087 49.994689 118.11455 51.082257 110.60358 50.814469 L 106.13564 50.655306 L 108.77321 51.491431 C 112.76447 52.756874 115.02 54.422951 116.4146 57.135531 C 117.37607 59.005652 117.44521 62.607742 116.56033 64.720597 C 114.50861 69.619491 108.14005 73.67664 102.50175 73.67664 C 100.77197 73.67664 100.37927 73.52357 99.333988 72.44209 C 98.564459 71.64587 97.712918 69.993485 96.936719 67.788627 C 95.69164 64.251854 95.470131 61.507808 94.451082 60.191158 C 93.908703 59.490468 93.862599 59.728247 93.851119 63.25247 C 93.842119 65.956873 92.62143 67.288965 92.23623 67.810848 C 92.022851 68.099971 91.831862 68.272653 91.661072 68.323478 L 91.661072 68.322961 L 91.574255 68.322961 L 91.574255 68.323478 C 91.403476 68.272648 91.21197 68.099971 90.99858 67.810848 C 90.61338 67.288965 89.392768 65.956873 89.384208 63.25247 C 89.372708 59.728247 89.326636 59.490468 88.784245 60.191158 C 87.765196 61.507808 87.54317 64.251854 86.298092 67.788627 C 85.521892 69.993485 84.670868 71.64587 83.901339 72.44209 C 82.85607 73.52357 82.463462 73.67664 80.733573 73.67664 C 75.095349 73.67664 68.726181 69.61948 66.674483 64.720597 C 65.789614 62.607727 65.859269 59.005652 66.820728 57.135531 C 68.215296 54.422936 70.470289 52.756874 74.461605 51.491431 L 77.09917 50.655306 L 72.631742 50.814469 C 65.12086 51.082257 63.774433 49.994689 62.603414 42.711605 C 62.068304 39.383511 61.256154 37.293523 58.546297 32.271415 C 57.698578 30.700366 57.417306 29.673819 57.412516 28.133167 L 57.406832 26.084196 z M 37.201347 39.217244 L 40.344307 48.325732 L 49.527209 45.271139 L 44.339412 53.522831 L 52.574052 58.565417 L 42.781885 59.753975 L 44.063977 69.461393 L 36.918677 62.489209 L 30.200741 69.421602 L 31.339172 59.730721 L 21.810555 58.49152 L 29.937708 53.348682 L 24.798486 45.263387 L 34.012394 48.393429 L 37.201347 39.217244 z M 146.05155 39.217244 L 149.19451 48.325732 L 158.37741 45.271139 L 153.18962 53.522831 L 161.42426 58.565417 L 151.6326 59.753975 L 152.91418 69.461393 L 145.7694 62.489209 L 139.05094 69.421602 L 140.18989 59.730721 L 130.66128 58.49152 L 138.78843 53.348682 L 133.64869 45.263387 L 142.8626 48.393429 L 146.05155 39.217244 z M 91.917904 83.988155 L 102.26094 106.96866 L 80.973869 106.89322 L 91.917904 83.988155 z M 82.801664 134.86774 C 83.042385 134.86786 83.297782 134.87277 83.57061 134.88117 C 85.26661 134.93517 85.88654 135.10185 87.231368 135.86509 C 89.347563 137.0661 90.98974 138.99427 91.444031 140.81156 C 91.518401 141.10904 91.595394 141.35261 91.617664 141.35261 C 91.639934 141.35261 91.716424 141.10903 91.79078 140.81156 C 92.245065 138.99426 93.887246 137.0661 96.003442 135.86509 C 97.34827 135.10185 97.968711 134.93517 99.664718 134.88117 C 101.84733 134.81167 102.90652 134.99942 104.37141 135.7142 C 105.68974 136.35746 106.29909 136.7848 107.2379 137.72493 C 108.20533 138.69371 108.66928 139.33816 109.28067 140.563 C 110.1037 142.21179 110.18611 142.62291 110.18811 145.0945 C 110.18911 146.97802 110.15351 147.41137 109.88735 148.69067 C 109.67782 149.69759 109.34059 150.6672 108.8502 151.67291 C 108.08213 153.24807 107.18685 154.45571 105.66383 155.97239 C 104.14049 157.48946 102.82606 158.60404 100.19078 160.61242 C 96.828704 163.17474 96.237833 163.63736 95.267053 164.4711 C 93.47502 166.01014 92.529332 167.02403 91.919454 168.05951 C 91.782127 168.29267 91.629844 168.48326 91.617664 168.48326 C 91.605484 168.48326 91.452683 168.29267 91.315356 168.05951 C 90.705478 167.02403 89.759788 166.01014 87.967757 164.4711 C 86.996977 163.63736 86.406646 163.17474 83.044543 160.61242 C 80.409286 158.60404 79.094376 157.48946 77.570976 155.97239 C 76.047961 154.45571 75.153183 153.24807 74.385124 151.67291 C 73.894729 150.6672 73.557494 149.69759 73.347978 148.69067 C 73.081788 147.41137 73.045821 146.97802 73.047221 145.0945 C 73.010961 141.94678 74.059402 139.67981 75.996912 137.72493 C 76.935713 136.7848 77.545087 136.35746 78.863403 135.7142 C 80.145178 135.08876 81.11663 134.86689 82.801664 134.86774 z M 37.801827 146.86029 C 39.724834 146.88309 43.764227 149.47293 46.539278 153.29245 C 46.651187 153.44647 46.759421 153.60061 46.864323 153.75444 C 47.373934 151.1679 48.498751 149.17797 49.353577 149.17797 C 50.204484 149.17797 51.381268 151.14968 51.923962 153.71878 C 52.030044 153.56241 52.139524 153.40594 52.253141 153.24956 C 55.474973 148.81507 60.525326 146.12832 61.864958 147.10162 C 63.204586 148.07488 62.085943 153.61845 58.864107 158.05288 C 58.833527 158.09498 58.802346 158.13488 58.771606 158.17639 C 61.079793 158.01313 62.956796 158.45564 63.197176 159.19545 C 63.466614 160.02468 61.872198 161.81904 59.502311 163.1394 C 59.88596 163.2353 60.275631 163.34537 60.670715 163.47374 C 65.883746 165.16757 69.999444 169.14033 69.487748 170.71516 C 68.976058 172.28999 63.358319 172.93918 58.145288 171.24536 C 57.96025 171.18526 57.778582 171.12306 57.599585 171.05881 C 58.423842 173.1526 58.564893 175.00922 57.947884 175.45751 C 57.296507 175.93076 55.371053 175.14604 53.514563 173.56977 C 53.535723 173.91812 53.548153 174.27415 53.548153 174.63844 C 53.548153 180.11971 51.041483 185.26208 49.385616 185.26208 C 47.729748 185.26208 45.376558 180.11972 45.376558 174.63844 C 45.376558 174.20781 45.392377 173.78927 45.419967 173.38115 C 43.528975 175.08873 41.534006 175.98011 40.859521 175.49006 C 40.256676 175.05207 40.340621 173.24339 41.089998 171.19058 C 40.970144 171.23238 40.851331 171.27478 40.72878 171.31461 C 35.515738 173.00843 29.850993 172.21352 29.339294 170.63868 C 28.827598 169.06384 32.990304 165.23682 38.203353 163.54299 C 38.618676 163.40804 39.027501 163.29245 39.429635 163.19159 C 36.963831 161.89091 35.272809 160.09579 35.548218 159.24816 C 35.787623 158.51135 37.665245 158.02308 39.97017 158.15107 C 39.95632 158.13217 39.942122 158.11478 39.928312 158.09578 C 36.706469 153.66128 35.712376 148.0279 37.052002 147.05459 C 37.219458 146.93293 37.442707 146.86988 37.71191 146.86132 C 37.74135 146.86038 37.771297 146.86029 37.801827 146.86029 z M 122.20959 146.86029 C 124.13262 146.88309 128.17255 149.47294 130.94756 153.29245 C 131.05947 153.44647 131.16771 153.60061 131.27261 153.75444 C 131.78222 151.1679 132.90657 149.17797 133.76134 149.17797 C 134.61225 149.17797 135.78903 151.14969 136.33173 153.71878 C 136.43781 153.56241 136.54782 153.40594 136.66143 153.24956 C 139.88322 148.81507 144.93309 146.12832 146.27273 147.10162 C 147.61231 148.07487 146.49425 153.61846 143.27239 158.05288 C 143.24179 158.09498 143.21059 158.13488 143.17989 158.17639 C 145.48809 158.01313 147.36508 158.45564 147.60546 159.19545 C 147.8749 160.02468 146.27997 161.81904 143.91008 163.1394 C 144.29372 163.2353 144.68339 163.34537 145.07848 163.47374 C 150.29153 165.16757 154.40722 169.14033 153.89552 170.71516 C 153.38383 172.28999 147.76663 172.93918 142.55357 171.24536 C 142.36853 171.18526 142.18635 171.12306 142.00735 171.05881 C 142.83161 173.1526 142.97266 175.00922 142.35565 175.45751 C 141.70426 175.93076 139.77935 175.14604 137.92285 173.56977 C 137.94405 173.91812 137.95592 174.27415 137.95592 174.63844 C 137.95592 180.1197 135.44925 185.26208 133.79338 185.26208 C 132.13756 185.26208 129.78433 180.11971 129.78433 174.63844 C 129.78433 174.20781 129.80013 173.78927 129.82773 173.38115 C 127.93679 175.08873 125.9423 175.98011 125.26781 175.49006 C 124.66496 175.05207 124.74889 173.24339 125.49828 171.19058 C 125.37842 171.23238 125.2591 171.27478 125.13655 171.31461 C 119.92349 173.00843 114.25876 172.21352 113.74706 170.63868 C 113.23536 169.06384 117.39857 165.23682 122.61164 163.54299 C 123.02697 163.40804 123.43527 163.29245 123.8374 163.19159 C 121.37159 161.89091 119.68058 160.09579 119.95599 159.24816 C 120.19539 158.51135 122.07358 158.02308 124.37845 158.15107 C 124.36455 158.13217 124.3503 158.11478 124.3366 158.09578 C 121.11475 153.66128 120.12014 148.0279 121.45977 147.05459 C 121.62723 146.93293 121.85047 146.86988 122.11968 146.86132 C 122.14908 146.86038 122.17909 146.86029 122.20959 146.86029 z M 84.732812 196.08002 C 87.881412 196.08302 90.666645 199.87141 91.61818 205.44534 C 92.569596 199.8721 95.354309 196.08367 98.502515 196.08002 C 101.61311 196.08402 104.37321 199.78448 105.35481 205.26602 C 106.2978 200.96484 108.57214 198.14625 111.10071 198.14501 C 114.08802 198.14801 116.6486 202.06006 117.18923 207.44625 C 117.72241 203.2147 119.812 200.21036 122.22251 200.20948 C 124.28132 200.21248 126.14195 202.4174 126.95763 205.82 C 127.70039 203.6237 129.05042 202.27563 130.50883 202.27396 C 132.78948 202.2742 134.63832 205.50977 134.63829 209.50091 C 134.63831 213.49193 132.78947 216.72762 130.50883 216.72786 C 129.03266 216.72586 127.66956 215.34442 126.93334 213.10534 C 126.13423 216.52334 124.28261 218.75909 122.22251 218.79285 C 119.78721 218.79085 117.68365 215.72417 117.17631 211.43671 C 116.66446 216.86171 114.10377 220.83229 111.10071 220.85732 C 108.55679 220.8566 106.27172 218.00442 105.33879 213.66551 C 104.37244 219.16506 101.61746 222.89622 98.502515 222.92334 C 95.334528 222.91934 92.537135 219.08423 91.602161 213.46294 C 90.670589 219.06402 87.889361 222.89456 84.732812 222.92334 C 81.605015 222.92327 78.831785 219.18597 77.861914 213.66344 C 76.93411 217.98135 74.666443 220.82986 72.135132 220.85732 C 69.121656 220.85532 66.546256 216.87863 66.033179 211.43464 C 65.528357 215.70623 63.438959 218.76855 61.012813 218.79285 C 58.952833 218.79085 57.090547 216.58426 56.275118 213.17924 C 55.533107 215.37552 54.184504 216.7242 52.726497 216.72786 C 50.445889 216.72762 48.59701 213.49192 48.597034 209.50091 C 48.597 205.50978 50.445882 202.2742 52.726497 202.27396 C 54.184379 202.27696 55.532953 203.62609 56.275118 205.82206 C 57.09073 202.41747 58.952976 200.21131 61.012813 200.20948 C 63.423859 200.21248 65.51219 203.22026 66.043514 207.45349 C 66.582618 202.06205 69.145373 198.14614 72.135132 198.14501 C 74.661361 198.14701 76.933926 200.9618 77.877934 205.25776 C 78.861361 199.77809 81.62269 196.08122 84.732812 196.08002 z M 54.43182 227.91167 L 58.124101 231.92486 L 62.122823 228.3504 L 61.168876 233.66946 L 66.546326 234.72521 L 61.762122 237.17519 L 64.25861 241.92787 L 59.403609 239.82567 L 57.270406 244.81193 L 55.733549 239.65256 L 50.611381 241.14239 L 53.674243 236.69615 L 49.327222 233.57489 L 54.740328 233.34803 L 54.43182 227.91167 z M 121.7936 227.91167 L 125.48588 231.92486 L 129.4846 228.3504 L 128.53066 233.66946 L 133.90811 234.72521 L 129.12338 237.17519 L 131.61987 241.92787 L 126.76539 239.82567 L 124.63167 244.81193 L 123.09533 239.65256 L 117.97316 241.14239 L 121.03551 236.69615 L 116.689 233.57489 L 122.10211 233.34803 L 121.7936 227.91167 z " />
    <g
       id="g2500"
       transform="translate(6.5469976,-74.328109)" />
    <g
       id="g607"
       transform="translate(0.55263048)" />
  </g>
</svg>
