<?xml version="1.0" encoding="UTF-8" standalone="no"?>
<!-- Created with Inkscape (http://www.inkscape.org/) -->

<svg
   width="210mm"
   height="297mm"
   viewBox="0 0 210 297"
   version="1.1"
   id="svg1047"
   inkscape:version="1.2.2 (b0a8486541, 2022-12-01)"
   sodipodi:docname="star-beth-2.svg"
   xmlns:inkscape="http://www.inkscape.org/namespaces/inkscape"
   xmlns:sodipodi="http://sodipodi.sourceforge.net/DTD/sodipodi-0.dtd"
   xmlns="http://www.w3.org/2000/svg"
   xmlns:svg="http://www.w3.org/2000/svg">
  <sodipodi:namedview
     id="namedview1049"
     pagecolor="#ffffff"
     bordercolor="#666666"
     borderopacity="1.0"
     inkscape:showpageshadow="2"
     inkscape:pageopacity="0.0"
     inkscape:pagecheckerboard="0"
     inkscape:deskcolor="#d1d1d1"
     inkscape:document-units="mm"
     showgrid="false"
     inkscape:zoom="0.72960859"
     inkscape:cx="189.14251"
     inkscape:cy="363.89374"
     inkscape:window-width="1920"
     inkscape:window-height="997"
     inkscape:window-x="0"
     inkscape:window-y="27"
     inkscape:window-maximized="1"
     inkscape:current-layer="layer1" />
  <defs
     id="defs1044" />
  <g
     inkscape:label="Layer 1"
     inkscape:groupmode="layer"
     id="layer1">
    <path
       id="path764-3-2-3-0"
       style="fill:#cccccc;stroke:#000000;stroke-width:0.264583px;stroke-linecap:butt;stroke-linejoin:miter;stroke-opacity:1"
       d="m 68.871057,16.608429 c -0.662747,5.539759 -2.201837,19.351963 -15.281238,12.963033 13.905688,11.382096 -0.08065,32.513571 -1.791105,16.47703 0,0 -2.097591,3.413544 -2.173511,5.259627 -0.108377,2.635324 0.325285,5.66476 2.478919,7.655864 1.463614,1.353164 5.481715,0.367987 6.181535,2.069641 0.781507,8.261946 -6.728018,5.450467 -11.070126,5.384167 -9.32007,0.22195 -20.435689,4.672357 -16.392281,11.888164 1.987664,3.34461 11.356413,6.36395 11.356413,6.36395 0,0 -4.583507,-3.25974 -5.576404,-5.47925 -0.950117,-2.12384 -2.021794,-5.17035 -0.03824,-6.769613 2.602051,-2.098001 8.191706,-1.856084 11.064957,0 3.621811,2.339633 3.81647,7.264853 2.98173,10.935763 -1.400894,2.75049 -4.234812,5.32811 -6.946346,7.00785 -7.808746,5.05265 -20.548649,5.34716 -18.990055,-1.77302 2.470494,-4.16161 10.171341,-2.49814 7.481197,1.22576 3.221831,-2.26282 4.741951,-7.92312 -0.748791,-8.02535 -21.310547,0.30073 -5.917701,25.545315 8.963794,15.95045 0,0 0.09525,3.733765 -1.08934,5.219845 -7.509446,8.00126 -12.921446,-4.300745 -19.256705,-5.606905 -5.098145,-0.88013 -10.6307875,-4.18957 -12.6906985,-8.93537 -4.321638,-9.9565 -20.5863405,-14.49369 -20.5863405,-14.49369 0,0 15.8177765,9.89218 19.1094275,17.6966 2.109674,5.00197 6.8040835,9.335275 11.9496585,11.065475 9.349963,3.14392 16.996896,15.74013 16.996896,15.74013 -13.488011,-1.57289 -28.0680245,-1.09487 -31.2637255,-9.68624 -0.795217,-2.13785 4.488522,-3.56061 4.859652,-5.43894 0,0 -8.83171399,0.99762 -10.921298,3.68763 -3.241878,4.17342 7.846876,11.30931 1.057817,14.72985 -7.098819,1.27226 -7.0055906,-4.55309 -6.3975424,-8.13955 0.1263597,-0.8549 0.3100586,-2.57091 0.3100586,-2.57091 -4.7851457,2.09099 -4.9870307,7.39186 -3.6933147,10.67739 0,0 -7.004221,-2.92827 -8.746236,-5.5671 -0.827768,-1.25394 -0.948809,-2.89816 -0.392741,-4.24522 0.806218,-1.95308 5.036385,-4.66483 5.036385,-4.66483 l -0.662492,7.5184 c 0,0 1.873404,-4.81754 3.766179,-6.76496 1.927794,-1.98345 7.3928305,-4.66277 7.3928305,-4.66277 0,0 -7.0747665,1.50701 -9.6769295,0.83716 -2.602162,-0.66986 2.443515,-0.97279 -8.307503,4.038 -6.124621,2.76093 -8.154084,5.7327 -6.4394,8.6682 0.1966,4.51074 -19.424788,6.90809 -25.92865,8.08995 6.700782,1.94671 25.547233,1.51536 30.292208,4.50308 1.838324,1.71289 2.995552,4.01723 0.0925,5.05034 -4.039968,1.72706 -8.339557,-0.64076 -2.742985,-2.6448 -4.779035,-2.42376 -6.752999,2.92512 -3.548621,5.52473 3.037401,1.23064 7.834429,0.50565 10.428821,-1.00149 6.081802,-3.33487 4.162487,-7.85252 -0.10697,-12.58115 5.798092,1.7181 9.632737,12.57133 14.1319535,9.20151 2.150834,-1.61093 -2.3207886,-7.72046 -2.3207886,-7.72046 0,0 4.5234296,6.09349 6.0120366,6.65799 2.19602101,0.29461 7.874723,1.2913 8.62738,-1.53065 1.594134,-5.97697 8.8319465,-7.75032 10.9559205,-4.76302 2.285824,3.21495 -0.845805,10.53498 -3.240629,12.71809 -4.3396355,1.60404 -7.9600925,2.80339 -9.4500695,0.0279 -0.945267,-1.76083 4.314183,-4.81604 3.327446,-4.98729 -18.0416575,0.5083 -0.216519,12.19403 3.0995525,10.85463 4.947425,-1.99832 9.815609,-13.31602 12.84211,-16.5995 6.223842,-6.58333 13.672296,0.0413 14.515393,5.09995 0,0 -14.123973,5.15928 -12.430249,12.22612 1.356797,5.66109 -2.092939,10.81665 -12.834359,11.69696 -11.79314449,0.96655 -16.7664185,19.60759 -16.7664185,19.60759 0,0 9.256369,-17.96174 21.7805835,-17.18034 9.3167,0.58127 13.435596,-4.55222 13.050366,-10.02368 -0.586037,-8.3235 13.103076,-10.06399 13.103076,-10.06399 -1.231467,4.79128 -6.828655,12.2447 1.521871,12.01426 1.872804,-0.0517 -3.19412,8.02483 -3.19412,8.02483 2.337791,-1.03944 4.741811,-7.27885 8.586039,-7.98969 1.735754,-0.32096 3.809748,0.60273 4.910295,1.98282 1.379304,1.72966 2.148352,4.63042 1.053165,6.55257 -2.199524,3.86041 -12.61215,5.01727 -12.61215,5.01727 l 3.89537,1.75286 c 0,0 5.175759,0.57302 7.320483,-0.60823 1.654854,-0.91145 3.415295,-4.52272 3.415295,-4.52272 0,0 -0.434707,5.30894 -2.085144,7.17372 -1.346024,1.52084 -5.125754,2.13712 -5.600691,2.39882 -0.47494,0.26171 -2.488025,0.43009 -3.057695,-0.42684 -0.487117,-0.73279 0.03029,-1.95393 0.675411,-2.5523 0.46625,-0.43245 1.875855,-0.34779 1.875855,-0.34779 0,0 -2.486597,-0.5656 -3.530534,-0.0222 -0.67895,0.35339 -1.077447,1.15808 -1.305347,1.88878 -0.21406,0.68631 -0.0187,1.43829 0,2.15697 0.0314,1.20352 0.188102,3.60702 0.188102,3.60702 l 0.680579,1.35805 c 0,0 0.481905,2.30449 -0.555522,2.66599 -1.037427,0.36149 -2.251125,0.87164 -2.639115,0.18138 -0.38799,-0.69028 -0.839968,-1.16814 -0.749308,-1.98644 0.0907,-0.8183 0.526579,-1.28971 1.112076,-1.50378 0.34929,-0.12771 1.085206,0.25786 1.085206,0.25786 0,0 -1.484587,-1.68758 -2.486154,-1.68672 -0.595977,5.1e-4 -1.087236,0.55613 -1.477946,1.00614 -0.516747,0.59521 -0.936237,1.34144 -1.043347,2.12236 -0.19815,1.44461 -0.155055,3.19995 0.801502,4.30051 0.583947,0.67186 1.667421,0.63671 2.531628,0.85008 0.907187,0.22398 1.842026,0.57762 2.767273,0.447 1.126737,-0.15906 2.32483,-0.61192 3.087667,-1.45624 1.275417,-1.92553 1.517228,-4.38869 1.980758,-6.61924 3.016431,9.70039 0.05133,12.00982 -8.449097,10.60245 l 2.903699,2.38849 -1.630909,3.42356 c 2.986431,-1.64685 3.750491,-3.67101 9.396843,-3.72845 l -5.606376,4.83226 5.073075,-1.18907 c 0,0 -0.01183,1.25484 -0.12144,1.86965 -0.150117,0.84223 -0.15097,1.82982 -0.728637,2.46083 -0.55557,0.60686 -1.473287,0.8963 -2.295984,0.90641 -1.387107,0.017 -2.324601,-1.3413 -3.907255,-1.43196 -4.013148,0.30507 -3.027751,2.59783 0.12609,4.09536 0,0 -1.532922,-1.90667 -0.927075,-2.59829 2.101974,-1.11181 5.430943,1.91201 6.50813,3.52123 0.25147,0.4328 2.617313,3.51482 3.13986,5.58571 0.25042,1.58794 -0.07975,2.95868 -0.537952,4.4912 0,0 -4.817482,0.65586 -6.721036,-0.53899 -1.142357,-0.71705 -2.22286,-2.15438 -2.04432,-3.49126 0.0891,-0.6669 0.801526,-1.20496 1.441256,-1.41335 0.617227,-0.20107 1.34314,-0.002 1.926497,0.28267 1.525407,0.75633 0.270479,2.15538 -0.659908,3.04788 0,0 1.467553,0.32372 2.08101,0 0.805307,-0.42497 1.525265,-1.34475 1.542025,-2.25516 -0.30335,-2.63402 -2.994285,-3.25556 -4.948019,-2.93523 -2.949531,0.68882 -5.189165,2.3071 -3.690731,5.65806 2.602204,4.07752 2.528198,3.46215 6.946863,3.84421 5.493665,-2.31527 9.668523,5.19007 3.126941,5.48958 -3.898348,0 -3.787882,-1.37769 -3.787882,-1.37769 l -4.976958,0.0904 c 0,0 0.326169,2.39068 0.701766,3.53002 0.28168,0.85446 0.597695,1.73164 1.150835,2.4412 0.710277,0.91115 1.527156,2.28167 2.679423,2.19831 0.942637,-0.0682 1.68935,-1.17609 1.910477,-2.09496 0.12859,-0.53435 -0.763205,-1.14966 -0.435115,-1.5906 0.924127,-1.24202 3.191643,-0.65202 4.643127,-0.11369 1.362447,0.57749 0.701285,2.01217 0.800985,3.00654 0.10626,0.85953 0.451676,1.67337 0.633036,2.52025 0.841687,3.93064 2.110466,11.87318 2.110466,11.87318 -2.289384,-0.37881 -6.802791,-1.67247 -7.199561,-3.36672 0.21846,-2.39541 3.462147,-1.70114 5.033801,-1.27589 -5.168782,-5.17251 -11.424443,-0.2403 -4.894791,4.27158 -5.744785,-1.64961 -8.352353,2.90042 -5.196582,4.61625 6.711739,-7.21451 15.672695,-2.39583 15.265218,6.07405 0.24596,1.49852 -0.279207,2.82085 -1.799374,3.14761 -0.912137,0.179 -1.858378,-0.28232 -2.710945,-0.65267 -1.389657,-0.60366 -2.280353,-2.57997 -3.793567,-2.50424 -1.896014,0.0949 -3.882991,1.77473 -4.416268,3.59668 -0.37078,1.26678 0.416161,2.72841 1.237651,3.76152 0.926827,1.16563 2.340514,2.48198 3.820438,2.31614 14.568458,-11.22636 11.602962,6.65545 5.11545,6.02134 -1.721034,-0.26997 -4.239534,-3.05614 -4.239534,-3.05614 l -0.302824,4.52788 -6.35155,2.05828 7.190258,0.42736 0.307475,6.5381 3.969784,-6.28385 c 10.11641,-1.94564 5.70144,9.48856 0.700215,10.24589 0,0 3.654859,1.15533 4.793506,2.56521 3.103521,3.84282 4.201294,14.24461 4.201294,14.24461 0,0 1.097256,-10.40179 4.200777,-14.24461 1.138647,-1.40988 4.793506,-2.56521 4.793506,-2.56521 -5.001225,-0.75733 -9.416194,-12.19153 0.700216,-10.24589 l 3.969783,6.28385 0.307475,-6.5381 7.190255,-0.42736 -6.351546,-2.05828 -0.302824,-4.52788 c 0,0 -2.518501,2.78617 -4.239535,3.05614 -6.487509,0.63411 -9.453015,-17.2477 5.115455,-6.02134 1.4799,0.16584 2.8936,-1.15051 3.82043,-2.31614 0.82149,-1.03311 1.60843,-2.49474 1.23765,-3.76152 -0.53328,-1.82195 -2.52027,-3.50178 -4.41626,-3.59668 -1.513226,-0.0757 -2.403916,1.90058 -3.79357,2.50424 -0.85257,0.37035 -1.798809,0.83167 -2.710946,0.65267 -1.520167,-0.32676 -2.045333,-1.64909 -1.799373,-3.14761 -0.40748,-8.46988 8.553489,-13.28856 15.265219,-6.07405 3.15578,-1.71583 0.54819,-6.26586 -5.19658,-4.61625 6.52964,-4.51188 0.27398,-9.44409 -4.894795,-4.27158 1.571654,-0.42525 4.815345,-1.11952 5.033805,1.27589 -0.39677,1.69425 -4.910183,2.98791 -7.199564,3.36672 0,0 1.268778,-7.94254 2.110465,-11.87318 0.18136,-0.84688 0.526777,-1.66072 0.633037,-2.52025 0.0997,-0.99437 -0.56146,-2.42905 0.800984,-3.00654 1.451488,-0.53833 3.718998,-1.12833 4.643128,0.11369 0.32809,0.44094 -0.56319,1.05625 -0.4346,1.5906 0.22113,0.91887 0.96732,2.02676 1.90996,2.09496 1.15227,0.0834 1.96917,-1.28716 2.67942,-2.19831 0.55314,-0.70956 0.86916,-1.58674 1.15084,-2.4412 0.3756,-1.13934 0.70176,-3.53002 0.70176,-3.53002 l -4.97695,-0.0904 c 0,0 0.11045,1.37769 -3.78788,1.37769 -6.541594,-0.29951 -2.366734,-7.80485 3.12694,-5.48958 4.41865,-0.38206 4.34517,0.23331 6.94738,-3.84421 1.49841,-3.35096 -0.74171,-4.96924 -3.69125,-5.65806 -1.95374,-0.32033 -4.64415,0.30121 -4.9475,2.93523 0.0168,0.91041 0.73622,1.83019 1.5415,2.25516 0.61346,0.32372 2.08101,0 2.08101,0 -0.93036,-0.8925 -2.18531,-2.29155 -0.6599,-3.04788 0.58336,-0.28478 1.30978,-0.48374 1.92701,-0.28267 0.63973,0.20839 1.35216,0.74645 1.44126,1.41335 0.17854,1.33688 -0.90248,2.77421 -2.04484,3.49126 -1.90356,1.19485 -6.72104,0.53899 -6.72104,0.53899 -0.458191,-1.53252 -0.788366,-2.90326 -0.537949,-4.4912 0.522549,-2.07089 2.888389,-5.15291 3.139859,-5.58571 1.07719,-1.60922 4.40615,-4.63304 6.50813,-3.52123 0.60585,0.69162 -0.92656,2.59829 -0.92656,2.59829 3.15385,-1.49753 4.13871,-3.79029 0.12558,-4.09536 -1.58266,0.0907 -2.52015,1.44896 -3.90726,1.43196 -0.8227,-0.0101 -1.74041,-0.29955 -2.29598,-0.90641 -0.57767,-0.63101 -0.57852,-1.6186 -0.72864,-2.46083 -0.10961,-0.61481 -0.12144,-1.86965 -0.12144,-1.86965 l 5.07308,1.18907 -5.60586,-4.83226 c 5.64634,0.0574 6.40988,2.0816 9.39632,3.72845 l -1.63091,-3.42356 2.9037,-2.38849 c -8.50042,1.40737 -11.46553,-0.90206 -8.44909,-10.60245 0.46353,2.23055 0.70533,4.69371 1.98075,6.61924 0.76284,0.84432 1.96093,1.29718 3.08767,1.45624 0.92525,0.13062 1.86008,-0.22302 2.76727,-0.447 0.86421,-0.21337 1.94768,-0.17822 2.53163,-0.85008 0.95656,-1.10056 0.99965,-2.8559 0.8015,-4.30051 -0.10711,-0.78092 -0.52659,-1.52715 -1.04334,-2.12236 -0.39071,-0.45001 -0.88145,-1.00563 -1.47743,-1.00614 -1.00157,-8.6e-4 -2.48667,1.68672 -2.48667,1.68672 0,0 0.73591,-0.38557 1.0852,-0.25786 0.5855,0.21407 1.02138,0.68548 1.11208,1.50378 0.0907,0.8183 -0.36132,1.29616 -0.74931,1.98644 -0.38799,0.69026 -1.60171,0.18011 -2.63911,-0.18138 -1.03743,-0.3615 -0.55553,-2.66599 -0.55553,-2.66599 l 0.68058,-1.35805 c 0,0 0.1567,-2.4035 0.1881,-3.60702 0.0187,-0.71868 0.21406,-1.47066 0,-2.15697 -0.2279,-0.7307 -0.62639,-1.53539 -1.30534,-1.88878 -1.04394,-0.54338 -3.53054,0.0222 -3.53054,0.0222 0,0 1.40961,-0.0847 1.87586,0.34779 0.64512,0.59837 1.16253,1.81951 0.67541,2.5523 -0.56967,0.85693 -2.58276,0.68855 -3.0577,0.42684 -0.47491,-0.2617 -4.25466,-0.87798 -5.600687,-2.39882 -1.650434,-1.86478 -2.085144,-7.17372 -2.085144,-7.17372 0,0 1.760441,3.61127 3.415295,4.52272 2.144726,1.18125 7.320486,0.60823 7.320486,0.60823 l 3.89537,-1.75286 c 0,0 -10.412629,-1.15686 -12.612153,-5.01727 -1.095187,-1.92215 -0.326141,-4.82291 1.053166,-6.55257 1.100547,-1.38009 3.174537,-2.30378 4.910297,-1.98282 3.84421,0.71084 6.24824,6.95025 8.58604,7.98969 0,0 -5.06693,-8.07653 -3.19412,-8.02483 8.350521,0.23044 2.75334,-7.22298 1.52187,-12.01426 0,0 13.689111,1.74049 13.103071,10.06399 -0.38523,5.47146 3.73367,10.60495 13.05037,10.02368 12.52422,-0.7814 21.78058,17.18034 21.78058,17.18034 0,0 -4.97327,-18.64104 -16.76642,-19.60759 -10.74142,-0.88031 -14.19115,-6.03587 -12.83435,-11.69696 1.6937,-7.06684 -12.43025,-12.22612 -12.43025,-12.22612 0.8431,-5.05869 8.29156,-11.68328 14.51539,-5.09995 3.02651,3.28348 7.89467,14.60118 12.84211,16.5995 3.31608,1.3394 21.1412,-10.34633 3.09955,-10.85463 -0.98674,0.17125 4.27272,3.22646 3.32745,4.98729 -1.48998,2.77549 -5.11045,1.57614 -9.45007,-0.0279 -2.39483,-2.18311 -5.52646,-9.50314 -3.24063,-12.71809 2.12398,-2.9873 9.3623,-1.21395 10.95644,4.76302 0.75266,2.82195 6.43083,1.82526 8.62686,1.53065 1.48861,-0.5645 6.01204,-6.65799 6.01204,-6.65799 0,0 -4.47163,6.10953 -2.32079,7.72046 4.4992,3.36982 8.33387,-7.48341 14.13195,-9.20151 -4.26944,4.72863 -6.18876,9.24628 -0.10697,12.58115 2.5944,1.50714 7.39141,2.23213 10.42882,1.00149 3.20439,-2.59961 1.23043,-7.94849 -3.54862,-5.52473 5.59659,2.00404 1.29697,4.37186 -2.74298,2.6448 -2.90306,-1.03311 -1.74583,-3.33746 0.0925,-5.05034 4.74496,-2.98773 23.59143,-2.55637 30.2922,-4.50308 -6.50385,-1.18186 -26.12524,-3.57921 -25.92864,-8.08995 1.71466,-2.9355 -0.31477,-5.90727 -6.43941,-8.6682 -10.75099,-5.01079 -5.70533,-4.70786 -8.3075,-4.038 -2.60217,0.66985 -9.67693,-0.83716 -9.67693,-0.83716 0,0 5.46506,2.67932 7.39283,4.66277 1.89278,1.94742 3.76618,6.76496 3.76618,6.76496 l -0.66197,-7.5184 c 0,0 4.22967,2.71175 5.03586,4.66483 0.55607,1.34706 0.43503,2.99128 -0.39274,4.24522 -1.74199,2.63883 -8.74572,5.5671 -8.74572,5.5671 1.29372,-3.28554 1.09133,-8.5864 -3.69383,-10.67739 0,0 0.1837,1.71601 0.31006,2.57091 0.60805,3.58646 0.70127,9.41181 -6.39754,8.13955 -6.78905,-3.42055 4.29968,-10.55643 1.05782,-14.72985 -2.08959,-2.69001 -10.9213,-3.68763 -10.9213,-3.68763 0.37113,1.87833 5.65539,3.30109 4.86017,5.43894 -3.19571,8.59136 -17.77625,8.11334 -31.26424,9.68624 0,0 7.64693,-12.59621 16.99689,-15.74013 5.14559,-1.73019 9.83998,-6.063505 11.94966,-11.065475 3.29166,-7.80441 19.10943,-17.6966 19.10943,-17.6966 0,0 -16.26472,4.5372 -20.58634,14.49369 -2.05992,4.7458 -7.59257,8.05523 -12.6907,8.93537 -6.33528,1.30616 -11.74724,13.608165 -19.256711,5.606905 -1.18459,-1.48608 -1.08934,-5.219845 -1.08934,-5.219845 14.881511,9.594865 30.274351,-15.64972 8.963801,-15.95045 -5.49076,0.10223 -3.97063,5.76253 -0.74879,8.02535 -2.69015,-3.7239 5.01072,-5.38737 7.48119,-1.22576 1.5586,7.12018 -11.18131,6.82567 -18.990051,1.77302 -2.71154,-1.67974 -5.54545,-4.25736 -6.94635,-7.00785 -0.83474,-3.67091 -0.64006,-8.59612 2.98173,-10.935763 2.87326,-1.856084 8.4629,-2.098001 11.064961,0 1.98356,1.599273 0.91188,4.645773 -0.0382,6.769613 -0.9929,2.21951 -5.576401,5.47925 -5.576401,5.47925 0,0 9.368741,-3.01934 11.356411,-6.36395 4.04339,-7.215812 -7.072211,-11.666214 -16.392281,-11.888164 -4.34212,0.0663 -11.851638,2.877779 -11.070128,-5.384167 0.699817,-1.701654 4.717918,-0.716477 6.181538,-2.069641 2.15361,-1.991104 2.58729,-5.020539 2.47891,-7.655864 -0.07587,-1.846083 -2.17351,-5.259627 -2.17351,-5.259627 -1.71043,16.036543 -15.696791,-5.094936 -1.7911,-16.47703 C 71.072375,35.960391 69.533804,22.148193 68.871057,16.608429 Z m 0,20.182747 2.301152,27.752828 -2.301152,27.752831 -2.301668,-27.752831 z m 0,58.708559 2.498556,24.684805 12.213724,-9.79527 -9.795267,12.21373 24.684799,2.49855 -24.684799,2.49908 9.795267,12.21372 -12.213724,-9.79527 -2.498556,24.6848 -2.499072,-24.6848 -12.213725,9.79527 9.795268,-12.21372 -24.684798,-2.49908 24.684798,-2.49855 -9.795268,-12.21373 12.213725,9.79527 z m 0,65.431675 4.212146,50.79948 -4.212146,50.79897 -4.212663,-50.79897 z" />
  </g>
</svg>
