<?xml version="1.0" encoding="UTF-8" standalone="no"?>
<!-- Created with Inkscape (http://www.inkscape.org/) -->

<svg
   width="210mm"
   height="297mm"
   viewBox="0 0 210 297"
   version="1.1"
   id="svg1"
   inkscape:version="1.4 (e7c3feb100, 2024-10-09)"
   sodipodi:docname="star-16.svg"
   xmlns:inkscape="http://www.inkscape.org/namespaces/inkscape"
   xmlns:sodipodi="http://sodipodi.sourceforge.net/DTD/sodipodi-0.dtd"
   xmlns="http://www.w3.org/2000/svg"
   xmlns:svg="http://www.w3.org/2000/svg">
  <sodipodi:namedview
     id="namedview1"
     pagecolor="#ffffff"
     bordercolor="#666666"
     borderopacity="1.0"
     inkscape:showpageshadow="2"
     inkscape:pageopacity="0.0"
     inkscape:pagecheckerboard="0"
     inkscape:deskcolor="#d1d1d1"
     inkscape:document-units="mm"
     inkscape:zoom="0.57830357"
     inkscape:cx="529.13386"
     inkscape:cy="913.87988"
     inkscape:window-width="1920"
     inkscape:window-height="997"
     inkscape:window-x="0"
     inkscape:window-y="27"
     inkscape:window-maximized="1"
     inkscape:current-layer="layer1" />
  <defs
     id="defs1" />
  <g
     inkscape:label="Layer 1"
     inkscape:groupmode="layer"
     id="layer1">
    <path
       id="path1"
       style="fill:#0000ff;stroke-width:0.394497;stroke-linejoin:bevel"
       d="m 79.386644,0 -11.889152,44.15759 -7.084032,-5.89003 0.939146,9.18169 -31.2455,-22.84992 22.849924,31.2455 -9.18169,-0.93885 5.889734,7.08374 -44.1572909,11.88944 44.1575819,11.88944 -5.890025,7.08403 9.181399,-0.93914 -22.849633,31.24549 31.2455,-22.84992 -0.939146,9.18168 7.084032,-5.89002 11.889152,44.15758 11.889442,-44.15758 7.084034,5.89002 -0.939148,-9.18139 31.245498,22.84963 -22.84964,-31.24549 9.18141,0.93914 -5.89003,-7.08403 44.15759,-11.88944 -44.1573,-11.88944 5.88974,-7.08374 -9.1817,0.93885 22.84993,-31.2455 -31.245498,22.84963 0.939148,-9.1814 -7.084034,5.89003 z" />
    <path
       id="path4"
       style="fill:#aa0000;stroke-width:0.544315;stroke-linejoin:bevel"
       d="m 244.51147,16.256604 -8.70936,33.76294 -7.36567,-6.24785 -1.37576,16.75405 -21.78901,-15.00982 14.09705,20.46417 -16.84602,1.38335 7.34485,8.65901 -33.85519,8.73327 35.63543,9.19232 -7.80785,9.204696 14.94428,1.22695 -13.51255,19.61582 20.46417,-14.09733 1.38335,16.84631 8.65901,-7.34514 8.73327,33.85548 8.75717,-33.94774 9.95235,8.44214 1.39066,-16.93829 19.13934,13.18457 -14.09706,-20.46417 16.84631,-1.38335 -7.34485,-8.659006 33.85491,-8.73326 -32.07495,-8.27422 6.88214,-8.11332 -18.74807,-1.53974 14.68157,-21.31252 -20.4639,14.09705 -1.38335,-16.84602 -8.659,7.34485 z" />
    <path
       id="path5"
       style="fill:#800080;stroke-width:0.680283;stroke-linejoin:bevel"
       d="M 56.503268,155.48155 42.180112,208.67831 4.969979,181.9926 l 27.494963,38.33926 -55.849304,15.03732 53.633935,14.44098 -25.279594,35.24953 36.378142,-26.08885 15.155147,56.28597 15.15515,-56.28597 36.378652,26.08885 L 82.756968,249.81016 136.3909,235.36918 80.541598,220.33186 108.03707,181.9926 70.826428,208.67831 Z" />
    <path
       sodipodi:type="star"
       style="fill:#00ff00;stroke-width:1;stroke-linejoin:bevel"
       id="path6"
       inkscape:flatsided="false"
       sodipodi:sides="4"
       sodipodi:cx="233.79085"
       sodipodi:cy="204.05229"
       sodipodi:r1="85.575127"
       sodipodi:r2="12.836269"
       sodipodi:arg1="1.5707963"
       sodipodi:arg2="2.3561945"
       inkscape:rounded="0"
       inkscape:randomized="0"
       d="m 233.79085,289.62742 -9.07662,-76.49852 -76.49851,-9.07661 76.49851,-9.07661 9.07662,-76.49851 9.07661,76.49851 76.49851,9.07661 -76.49851,9.07662 z"
       transform="translate(140.39083,94.09689)" />
    <path
       sodipodi:type="star"
       style="fill:#00ff00;stroke-width:1;stroke-linejoin:bevel"
       id="path6-4"
       inkscape:flatsided="false"
       sodipodi:sides="4"
       sodipodi:cx="233.79085"
       sodipodi:cy="204.05229"
       sodipodi:r1="85.575127"
       sodipodi:r2="12.836269"
       sodipodi:arg1="1.5707963"
       sodipodi:arg2="2.3561945"
       inkscape:rounded="0"
       inkscape:randomized="0"
       d="m 233.79085,289.62742 -9.07662,-76.49852 -76.49851,-9.07661 76.49851,-9.07661 9.07662,-76.49851 9.07661,76.49851 76.49851,9.07661 -76.49851,9.07662 z"
       transform="rotate(-15,661.35468,-282.08637)" />
    <path
       sodipodi:type="star"
       style="fill:#00ff00;stroke-width:1;stroke-linejoin:bevel"
       id="path6-6"
       inkscape:flatsided="false"
       sodipodi:sides="4"
       sodipodi:cx="233.79085"
       sodipodi:cy="204.05229"
       sodipodi:r1="85.575127"
       sodipodi:r2="12.836269"
       sodipodi:arg1="1.5707963"
       sodipodi:arg2="2.3561945"
       inkscape:rounded="0"
       inkscape:randomized="0"
       d="m 233.79085,289.62742 -9.07662,-76.49852 -76.49851,-9.07661 76.49851,-9.07661 9.07662,-76.49851 9.07661,76.49851 76.49851,9.07661 -76.49851,9.07662 z"
       transform="rotate(-30,479.57345,-10.872114)" />
    <path
       sodipodi:type="star"
       style="fill:#00ff00;stroke-width:1;stroke-linejoin:bevel"
       id="path6-6-3"
       inkscape:flatsided="false"
       sodipodi:sides="4"
       sodipodi:cx="233.79085"
       sodipodi:cy="204.05229"
       sodipodi:r1="85.575127"
       sodipodi:r2="12.836269"
       sodipodi:arg1="1.5707963"
       sodipodi:arg2="2.3561945"
       inkscape:rounded="0"
       inkscape:randomized="0"
       d="m 233.79085,289.62742 -9.07662,-76.49852 -76.49851,-9.07661 76.49851,-9.07661 9.07662,-76.49851 9.07661,76.49851 76.49851,9.07661 -76.49851,9.07662 z"
       transform="rotate(-45,417.57126,81.634015)" />
    <path
       sodipodi:type="star"
       style="fill:#00ff00;stroke-width:1;stroke-linejoin:bevel"
       id="path6-6-3-2"
       inkscape:flatsided="false"
       sodipodi:sides="4"
       sodipodi:cx="233.79085"
       sodipodi:cy="204.05229"
       sodipodi:r1="85.575127"
       sodipodi:r2="12.836269"
       sodipodi:arg1="1.5707963"
       sodipodi:arg2="2.3561945"
       inkscape:rounded="0"
       inkscape:randomized="0"
       d="m 233.79085,289.62742 -9.07662,-76.49852 -76.49851,-9.07661 76.49851,-9.07661 9.07662,-76.49851 9.07661,76.49851 76.49851,9.07661 -76.49851,9.07662 z"
       transform="rotate(-60,385.47656,129.51871)" />
    <path
       sodipodi:type="star"
       style="fill:#00ff00;stroke-width:1;stroke-linejoin:bevel"
       id="path6-6-3-9"
       inkscape:flatsided="false"
       sodipodi:sides="4"
       sodipodi:cx="233.79085"
       sodipodi:cy="204.05229"
       sodipodi:r1="85.575127"
       sodipodi:r2="12.836269"
       sodipodi:arg1="1.5707963"
       sodipodi:arg2="2.3561945"
       inkscape:rounded="0"
       inkscape:randomized="0"
       d="m 233.79085,289.62742 -9.07662,-76.49852 -76.49851,-9.07661 76.49851,-9.07661 9.07662,-76.49851 9.07661,76.49851 76.49851,9.07661 -76.49851,9.07662 z"
       transform="rotate(-60,385.47656,129.51871)" />
    <path
       sodipodi:type="star"
       style="fill:#00ff00;stroke-width:1;stroke-linejoin:bevel"
       id="path6-48"
       inkscape:flatsided="false"
       sodipodi:sides="4"
       sodipodi:cx="233.79085"
       sodipodi:cy="204.05229"
       sodipodi:r1="85.575127"
       sodipodi:r2="12.836269"
       sodipodi:arg1="1.5707963"
       sodipodi:arg2="2.3561945"
       inkscape:rounded="0"
       inkscape:randomized="0"
       d="m 233.79085,289.62742 -9.07662,-76.49852 -76.49851,-9.07661 76.49851,-9.07661 9.07662,-76.49851 9.07661,76.49851 76.49851,9.07661 -76.49851,9.07662 z"
       transform="matrix(-0.96592583,-0.25881905,-0.25881905,0.96592583,652.81891,161.55933)" />
  </g>
</svg>
